%!PS-Adobe-3.0 EPSF-3.0
%%Creator: MATLAB, The MathWorks, Inc. Version 7.12.0.635 (R2011a). Operating System: Darwin 10.8.0 Darwin Kernel Version 10.8.0: Tue Jun  7 16:33:36 PDT 2011; root:xnu-1504.15.3~1/RELEASE_I386 i386.
%%Title: /Users/adamhammouda/Dropbox/Common/ResearchInterests/VinayBunion/FinalSimulationCode/docs/figures/dima_results.eps
%%CreationDate: 02/18/2014  09:46:58
%%DocumentNeededFonts: Helvetica-Bold
%%+ Helvetica
%%DocumentProcessColors: Cyan Magenta Yellow Black
%%LanguageLevel: 2
%%Pages: 1
%%BoundingBox:    25   186   585   606
%%EndComments

%%BeginProlog
% MathWorks dictionary
/MathWorks 160 dict begin
% definition operators
/bdef {bind def} bind def
/ldef {load def} bind def
/xdef {exch def} bdef
/xstore {exch store} bdef
% operator abbreviations
/c  /clip ldef
/cc /concat ldef
/cp /closepath ldef
/gr /grestore ldef
/gs /gsave ldef
/mt /moveto ldef
/np /newpath ldef
/cm /currentmatrix ldef
/sm /setmatrix ldef
/rm /rmoveto ldef
/rl /rlineto ldef
/s {show newpath} bdef
/sc {setcmykcolor} bdef
/sr /setrgbcolor ldef
/sg /setgray ldef
/w /setlinewidth ldef
/j /setlinejoin ldef
/cap /setlinecap ldef
/rc {rectclip} bdef
/rf {rectfill} bdef
% page state control
/pgsv () def
/bpage {/pgsv save def} bdef
/epage {pgsv restore} bdef
/bplot /gsave ldef
/eplot {stroke grestore} bdef
% orientation switch
/portraitMode 0 def /landscapeMode 1 def /rotateMode 2 def
% coordinate system mappings
/dpi2point 0 def
% font control
/FontSize 0 def
/FMS {/FontSize xstore findfont [FontSize 0 0 FontSize neg 0 0]
  makefont setfont} bdef
/reencode {exch dup where {pop load} {pop StandardEncoding} ifelse
  exch dup 3 1 roll findfont dup length dict begin
  { 1 index /FID ne {def}{pop pop} ifelse } forall
  /Encoding exch def currentdict end definefont pop} bdef
/isroman {findfont /CharStrings get /Agrave known} bdef
/FMSR {3 1 roll 1 index dup isroman {reencode} {pop pop} ifelse
  exch FMS} bdef
/csm {1 dpi2point div -1 dpi2point div scale neg translate
 dup landscapeMode eq {pop -90 rotate}
  {rotateMode eq {90 rotate} if} ifelse} bdef
% line types: solid, dotted, dashed, dotdash
/SO { [] 0 setdash } bdef
/DO { [.5 dpi2point mul 4 dpi2point mul] 0 setdash } bdef
/DA { [6 dpi2point mul] 0 setdash } bdef
/DD { [.5 dpi2point mul 4 dpi2point mul 6 dpi2point mul 4
  dpi2point mul] 0 setdash } bdef
% macros for lines and objects
/L {lineto stroke} bdef
/MP {3 1 roll moveto 1 sub {rlineto} repeat} bdef
/AP {{rlineto} repeat} bdef
/PDlw -1 def
/W {/PDlw currentlinewidth def setlinewidth} def
/PP {closepath eofill} bdef
/DP {closepath stroke} bdef
/MR {4 -2 roll moveto dup  0 exch rlineto exch 0 rlineto
  neg 0 exch rlineto closepath} bdef
/FR {MR stroke} bdef
/PR {MR fill} bdef
/L1i {{currentfile picstr readhexstring pop} image} bdef
/tMatrix matrix def
/MakeOval {newpath tMatrix currentmatrix pop translate scale
0 0 1 0 360 arc tMatrix setmatrix} bdef
/FO {MakeOval stroke} bdef
/PO {MakeOval fill} bdef
/PD {currentlinewidth 2 div 0 360 arc fill
   PDlw -1 eq not {PDlw w /PDlw -1 def} if} def
/FA {newpath tMatrix currentmatrix pop translate scale
  0 0 1 5 -2 roll arc tMatrix setmatrix stroke} bdef
/PA {newpath tMatrix currentmatrix pop	translate 0 0 moveto scale
  0 0 1 5 -2 roll arc closepath tMatrix setmatrix fill} bdef
/FAn {newpath tMatrix currentmatrix pop translate scale
  0 0 1 5 -2 roll arcn tMatrix setmatrix stroke} bdef
/PAn {newpath tMatrix currentmatrix pop translate 0 0 moveto scale
  0 0 1 5 -2 roll arcn closepath tMatrix setmatrix fill} bdef
/vradius 0 def /hradius 0 def /lry 0 def
/lrx 0 def /uly 0 def /ulx 0 def /rad 0 def
/MRR {/vradius xdef /hradius xdef /lry xdef /lrx xdef /uly xdef
  /ulx xdef newpath tMatrix currentmatrix pop ulx hradius add uly
  vradius add translate hradius vradius scale 0 0 1 180 270 arc 
  tMatrix setmatrix lrx hradius sub uly vradius add translate
  hradius vradius scale 0 0 1 270 360 arc tMatrix setmatrix
  lrx hradius sub lry vradius sub translate hradius vradius scale
  0 0 1 0 90 arc tMatrix setmatrix ulx hradius add lry vradius sub
  translate hradius vradius scale 0 0 1 90 180 arc tMatrix setmatrix
  closepath} bdef
/FRR {MRR stroke } bdef
/PRR {MRR fill } bdef
/MlrRR {/lry xdef /lrx xdef /uly xdef /ulx xdef /rad lry uly sub 2 div def
  newpath tMatrix currentmatrix pop ulx rad add uly rad add translate
  rad rad scale 0 0 1 90 270 arc tMatrix setmatrix lrx rad sub lry rad
  sub translate rad rad scale 0 0 1 270 90 arc tMatrix setmatrix
  closepath} bdef
/FlrRR {MlrRR stroke } bdef
/PlrRR {MlrRR fill } bdef
/MtbRR {/lry xdef /lrx xdef /uly xdef /ulx xdef /rad lrx ulx sub 2 div def
  newpath tMatrix currentmatrix pop ulx rad add uly rad add translate
  rad rad scale 0 0 1 180 360 arc tMatrix setmatrix lrx rad sub lry rad
  sub translate rad rad scale 0 0 1 0 180 arc tMatrix setmatrix
  closepath} bdef
/FtbRR {MtbRR stroke } bdef
/PtbRR {MtbRR fill } bdef
/stri 6 array def /dtri 6 array def
/smat 6 array def /dmat 6 array def
/tmat1 6 array def /tmat2 6 array def /dif 3 array def
/asub {/ind2 exch def /ind1 exch def dup dup
  ind1 get exch ind2 get sub exch } bdef
/tri_to_matrix {
  2 0 asub 3 1 asub 4 0 asub 5 1 asub
  dup 0 get exch 1 get 7 -1 roll astore } bdef
/compute_transform {
  dmat dtri tri_to_matrix tmat1 invertmatrix 
  smat stri tri_to_matrix tmat2 concatmatrix } bdef
/ds {stri astore pop} bdef
/dt {dtri astore pop} bdef
/db {2 copy /cols xdef /rows xdef mul dup 3 mul string
  currentfile 
  3 index 0 eq {/ASCIIHexDecode filter}
  {/ASCII85Decode filter 3 index 2 eq {/RunLengthDecode filter} if }
  ifelse exch readstring pop
  dup 0 3 index getinterval /rbmap xdef
  dup 2 index dup getinterval /gbmap xdef
  1 index dup 2 mul exch getinterval /bbmap xdef pop pop}bdef
/it {gs np dtri aload pop moveto lineto lineto cp c
  cols rows 8 compute_transform 
  rbmap gbmap bbmap true 3 colorimage gr}bdef
/il {newpath moveto lineto stroke}bdef
currentdict end def
%%EndProlog

%%BeginSetup
MathWorks begin

0 cap

end
%%EndSetup

%%Page: 1 1
%%BeginPageSetup
%%PageBoundingBox:    25   186   585   606
MathWorks begin
bpage
%%EndPageSetup

%%BeginObject: obj1
bplot

/dpi2point 12 def
portraitMode 0300 7272 csm

    0     0  6721  5033 rc
87 dict begin %Colortable dictionary
/c0 { 0.000000 0.000000 0.000000 sr} bdef
/c1 { 1.000000 1.000000 1.000000 sr} bdef
/c2 { 0.900000 0.000000 0.000000 sr} bdef
/c3 { 0.000000 0.820000 0.000000 sr} bdef
/c4 { 0.000000 0.000000 0.800000 sr} bdef
/c5 { 0.910000 0.820000 0.320000 sr} bdef
/c6 { 1.000000 0.260000 0.820000 sr} bdef
/c7 { 0.000000 0.820000 0.820000 sr} bdef
c0
1 j
1 sg
   0    0 6722 5034 rf
6 w
0 4102 5209 0 0 -4102 874 4479 4 MP
PP
-5209 0 0 4102 5209 0 0 -4102 874 4479 5 MP stroke
4 w
DO
SO
6 w
0 sg
 874 4479 mt 6083 4479 L
 874 4479 mt  874  377 L
1584 4479 mt 1584 4426 L
%%IncludeResource: font Helvetica-Bold
/Helvetica-Bold /ISOLatin1Encoding 240 FMSR

1451 4743 mt 
(50) s
2310 4479 mt 2310 4426 L
2110 4743 mt 
(100) s
3035 4479 mt 3035 4426 L
2835 4743 mt 
(150) s
3761 4479 mt 3761 4426 L
3561 4743 mt 
(200) s
4486 4479 mt 4486 4426 L
4286 4743 mt 
(250) s
5212 4479 mt 5212 4426 L
5012 4743 mt 
(300) s
5937 4479 mt 5937 4426 L
5737 4743 mt 
(350) s
 874 4479 mt  926 4479 L
 566 4571 mt 
(-5) s
 874 2428 mt  926 2428 L
 706 2520 mt 
(0) s
 874  377 mt  926  377 L
 706  469 mt 
(5) s
gs 874 377 5210 4103 rc
gr

24 W
/c8 { 0.000000 0.000000 1.000000 sr} bdef
c8
874 2443 PD
24 W
888 2458 PD
24 W
903 2474 PD
24 W
917 2489 PD
24 W
932 2504 PD
24 W
946 2519 PD
24 W
961 2535 PD
24 W
975 2550 PD
24 W
990 2565 PD
24 W
1004 2580 PD
24 W
1019 2595 PD
24 W
1033 2610 PD
24 W
1048 2626 PD
24 W
1062 2640 PD
24 W
1077 2655 PD
24 W
1091 2670 PD
24 W
1106 2685 PD
24 W
1120 2700 PD
24 W
1135 2714 PD
24 W
1149 2729 PD
24 W
1164 2743 PD
24 W
1178 2758 PD
24 W
1193 2772 PD
24 W
1207 2786 PD
24 W
1222 2800 PD
24 W
1236 2814 PD
24 W
1251 2828 PD
24 W
1265 2841 PD
24 W
1280 2855 PD
24 W
1294 2868 PD
24 W
1309 2882 PD
24 W
1323 2895 PD
24 W
1338 2908 PD
24 W
1352 2921 PD
24 W
1367 2934 PD
24 W
1381 2946 PD
24 W
1396 2959 PD
24 W
1410 2971 PD
24 W
1425 2983 PD
24 W
1439 2995 PD
24 W
1454 3007 PD
24 W
1468 3019 PD
24 W
1483 3030 PD
24 W
1497 3042 PD
24 W
1512 3053 PD
24 W
1526 3064 PD
24 W
1541 3075 PD
24 W
1555 3085 PD
24 W
1570 3096 PD
24 W
1584 3106 PD
24 W
1599 3116 PD
24 W
1613 3126 PD
24 W
1628 3135 PD
24 W
1643 3145 PD
24 W
1657 3154 PD
24 W
1672 3163 PD
24 W
1686 3171 PD
24 W
1701 3180 PD
24 W
1715 3188 PD
24 W
1730 3196 PD
24 W
1744 3204 PD
24 W
1759 3212 PD
24 W
1773 3219 PD
24 W
1788 3226 PD
24 W
1802 3233 PD
24 W
1817 3240 PD
24 W
1831 3246 PD
24 W
1846 3253 PD
24 W
1860 3259 PD
24 W
1875 3264 PD
24 W
1889 3270 PD
24 W
1904 3275 PD
24 W
1918 3280 PD
24 W
1933 3284 PD
24 W
1947 3289 PD
24 W
1962 3293 PD
24 W
1976 3297 PD
24 W
1991 3301 PD
24 W
2005 3304 PD
24 W
2020 3307 PD
24 W
2034 3310 PD
24 W
2049 3313 PD
24 W
2063 3315 PD
24 W
2078 3317 PD
24 W
2092 3319 PD
24 W
2107 3320 PD
24 W
2121 3322 PD
24 W
2136 3323 PD
24 W
2150 3323 PD
24 W
2165 3324 PD
24 W
2179 3324 PD
24 W
2194 3324 PD
24 W
2208 3323 PD
24 W
2223 3323 PD
24 W
2237 3322 PD
24 W
2252 3321 PD
24 W
2266 3319 PD
24 W
2281 3317 PD
24 W
2295 3315 PD
24 W
2310 3313 PD
24 W
2324 3310 PD
24 W
2339 3308 PD
24 W
2353 3304 PD
24 W
2368 3301 PD
24 W
2383 3297 PD
24 W
2397 3294 PD
24 W
2412 3289 PD
24 W
2426 3285 PD
24 W
2441 3280 PD
24 W
2455 3275 PD
24 W
2470 3270 PD
24 W
2484 3264 PD
24 W
2499 3259 PD
24 W
2513 3253 PD
24 W
2528 3246 PD
24 W
2542 3240 PD
24 W
2557 3233 PD
24 W
2571 3226 PD
24 W
2586 3219 PD
24 W
2600 3211 PD
24 W
2615 3203 PD
24 W
2629 3195 PD
24 W
2644 3187 PD
24 W
2658 3179 PD
24 W
2673 3170 PD
24 W
2687 3161 PD
24 W
2702 3152 PD
24 W
2716 3142 PD
24 W
2731 3133 PD
24 W
2745 3123 PD
24 W
2760 3113 PD
24 W
2774 3102 PD
24 W
2789 3092 PD
24 W
2803 3081 PD
24 W
2818 3070 PD
24 W
2832 3059 PD
24 W
2847 3047 PD
24 W
2861 3036 PD
24 W
2876 3024 PD
24 W
2890 3012 PD
24 W
2905 3000 PD
24 W
2919 2988 PD
24 W
2934 2975 PD
24 W
2948 2963 PD
24 W
2963 2950 PD
24 W
2977 2937 PD
24 W
2992 2924 PD
24 W
3006 2910 PD
24 W
3021 2897 PD
24 W
3035 2883 PD
24 W
3050 2870 PD
24 W
3064 2856 PD
24 W
3079 2842 PD
24 W
3093 2827 PD
24 W
3108 2813 PD
24 W
3123 2799 PD
24 W
3137 2784 PD
24 W
3152 2769 PD
24 W
3166 2755 PD
24 W
3181 2740 PD
24 W
3195 2725 PD
24 W
3210 2710 PD
24 W
3224 2695 PD
24 W
3239 2679 PD
24 W
3253 2664 PD
24 W
3268 2648 PD
24 W
3282 2633 PD
24 W
3297 2617 PD
24 W
3311 2602 PD
24 W
3326 2586 PD
24 W
3340 2570 PD
24 W
3355 2555 PD
24 W
3369 2539 PD
24 W
3384 2523 PD
24 W
3398 2507 PD
24 W
3413 2491 PD
24 W
3427 2475 PD
24 W
3442 2459 PD
24 W
3456 2443 PD
24 W
3471 2428 PD
24 W
3485 2412 PD
24 W
3500 2396 PD
24 W
3514 2380 PD
24 W
3529 2364 PD
24 W
3543 2348 PD
24 W
3558 2332 PD
24 W
3572 2316 PD
24 W
3587 2300 PD
24 W
3601 2285 PD
24 W
3616 2269 PD
24 W
3630 2253 PD
24 W
3645 2238 PD
24 W
3659 2222 PD
24 W
3674 2207 PD
24 W
3688 2191 PD
24 W
3703 2176 PD
24 W
3717 2160 PD
24 W
3732 2145 PD
24 W
3746 2130 PD
24 W
3761 2115 PD
24 W
3775 2100 PD
24 W
3790 2086 PD
24 W
3804 2071 PD
24 W
3819 2056 PD
24 W
3833 2042 PD
24 W
3848 2028 PD
24 W
3863 2013 PD
24 W
3877 1999 PD
24 W
3892 1985 PD
24 W
3906 1972 PD
24 W
3921 1958 PD
24 W
3935 1945 PD
24 W
3950 1931 PD
24 W
3964 1918 PD
24 W
3979 1905 PD
24 W
3993 1892 PD
24 W
4008 1880 PD
24 W
4022 1867 PD
24 W
4037 1855 PD
24 W
4051 1843 PD
24 W
4066 1831 PD
24 W
4080 1819 PD
24 W
4095 1808 PD
24 W
4109 1796 PD
24 W
4124 1785 PD
24 W
4138 1774 PD
24 W
4153 1763 PD
24 W
4167 1753 PD
24 W
4182 1742 PD
24 W
4196 1732 PD
24 W
4211 1722 PD
24 W
4225 1713 PD
24 W
4240 1703 PD
24 W
4254 1694 PD
24 W
4269 1685 PD
24 W
4283 1676 PD
24 W
4298 1668 PD
24 W
4312 1660 PD
24 W
4327 1652 PD
24 W
4341 1644 PD
24 W
4356 1636 PD
24 W
4370 1629 PD
24 W
4385 1622 PD
24 W
4399 1615 PD
24 W
4414 1609 PD
24 W
4428 1602 PD
24 W
4443 1596 PD
24 W
4457 1591 PD
24 W
4472 1585 PD
24 W
4486 1580 PD
24 W
4501 1575 PD
24 W
4515 1570 PD
24 W
4530 1566 PD
24 W
4544 1561 PD
24 W
4559 1558 PD
24 W
4573 1554 PD
24 W
4588 1551 PD
24 W
4603 1547 PD
24 W
4617 1545 PD
24 W
4632 1542 PD
24 W
4646 1540 PD
24 W
4661 1538 PD
24 W
4675 1536 PD
24 W
4690 1534 PD
24 W
4704 1533 PD
24 W
4719 1532 PD
24 W
4733 1532 PD
24 W
4748 1531 PD
24 W
4762 1531 PD
24 W
4777 1531 PD
24 W
4791 1532 PD
24 W
4806 1532 PD
24 W
4820 1533 PD
24 W
4835 1535 PD
24 W
4849 1536 PD
24 W
4864 1538 PD
24 W
4878 1540 PD
24 W
4893 1542 PD
24 W
4907 1545 PD
24 W
4922 1548 PD
24 W
4936 1551 PD
24 W
4951 1554 PD
24 W
4965 1558 PD
24 W
4980 1562 PD
24 W
4994 1566 PD
24 W
5009 1571 PD
24 W
5023 1575 PD
24 W
5038 1580 PD
24 W
5052 1585 PD
24 W
5067 1591 PD
24 W
5081 1596 PD
24 W
5096 1602 PD
24 W
5110 1609 PD
24 W
5125 1615 PD
24 W
5139 1622 PD
24 W
5154 1629 PD
24 W
5168 1636 PD
24 W
5183 1643 PD
24 W
5197 1651 PD
24 W
5212 1659 PD
24 W
5226 1667 PD
24 W
5241 1675 PD
24 W
5255 1684 PD
24 W
5270 1692 PD
24 W
5284 1701 PD
24 W
5299 1710 PD
24 W
5313 1720 PD
24 W
5328 1729 PD
24 W
5343 1739 PD
24 W
5357 1749 PD
24 W
5372 1759 PD
24 W
5386 1770 PD
24 W
5401 1780 PD
24 W
5415 1791 PD
24 W
5430 1802 PD
24 W
5444 1813 PD
24 W
5459 1825 PD
24 W
5473 1836 PD
24 W
5488 1848 PD
24 W
5502 1860 PD
24 W
5517 1872 PD
24 W
5531 1884 PD
24 W
5546 1896 PD
24 W
5560 1909 PD
24 W
5575 1921 PD
24 W
5589 1934 PD
24 W
5604 1947 PD
24 W
5618 1960 PD
24 W
5633 1973 PD
24 W
5647 1987 PD
24 W
5662 2000 PD
24 W
5676 2014 PD
24 W
5691 2027 PD
24 W
5705 2041 PD
24 W
5720 2055 PD
24 W
5734 2069 PD
24 W
5749 2083 PD
24 W
5763 2097 PD
24 W
5778 2112 PD
24 W
5792 2126 PD
24 W
5807 2141 PD
24 W
5821 2155 PD
24 W
5836 2170 PD
24 W
5850 2185 PD
24 W
5865 2200 PD
24 W
5879 2215 PD
24 W
5894 2229 PD
24 W
5908 2245 PD
24 W
5923 2260 PD
24 W
5937 2275 PD
24 W
5952 2290 PD
24 W
5966 2305 PD
24 W
5981 2320 PD
24 W
5995 2336 PD
24 W
6010 2351 PD
24 W
6024 2366 PD
24 W
6039 2381 PD
24 W
6053 2397 PD
24 W
6068 2412 PD
24 W
6083 2428 PD
gs 874 377 5210 4103 rc
gr

24 W
/c9 { 0.000000 1.000000 1.000000 sr} bdef
c9
874 2448 PD
24 W
888 2469 PD
24 W
903 2490 PD
24 W
917 2511 PD
24 W
932 2532 PD
24 W
946 2553 PD
24 W
961 2574 PD
24 W
975 2594 PD
24 W
990 2615 PD
24 W
1004 2636 PD
24 W
1019 2656 PD
24 W
1033 2677 PD
24 W
1048 2697 PD
24 W
1062 2718 PD
24 W
1077 2738 PD
24 W
1091 2758 PD
24 W
1106 2778 PD
24 W
1120 2798 PD
24 W
1135 2818 PD
24 W
1149 2838 PD
24 W
1164 2858 PD
24 W
1178 2877 PD
24 W
1193 2897 PD
24 W
1207 2916 PD
24 W
1222 2935 PD
24 W
1236 2954 PD
24 W
1251 2973 PD
24 W
1265 2991 PD
24 W
1280 3010 PD
24 W
1294 3028 PD
24 W
1309 3046 PD
24 W
1323 3064 PD
24 W
1338 3082 PD
24 W
1352 3100 PD
24 W
1367 3117 PD
24 W
1381 3134 PD
24 W
1396 3151 PD
24 W
1410 3168 PD
24 W
1425 3184 PD
24 W
1439 3201 PD
24 W
1454 3217 PD
24 W
1468 3232 PD
24 W
1483 3248 PD
24 W
1497 3263 PD
24 W
1512 3279 PD
24 W
1526 3293 PD
24 W
1541 3308 PD
24 W
1555 3322 PD
24 W
1570 3336 PD
24 W
1584 3350 PD
24 W
1599 3364 PD
24 W
1613 3377 PD
24 W
1628 3390 PD
24 W
1643 3403 PD
24 W
1657 3415 PD
24 W
1672 3427 PD
24 W
1686 3439 PD
24 W
1701 3450 PD
24 W
1715 3462 PD
24 W
1730 3472 PD
24 W
1744 3483 PD
24 W
1759 3493 PD
24 W
1773 3503 PD
24 W
1788 3513 PD
24 W
1802 3522 PD
24 W
1817 3531 PD
24 W
1831 3540 PD
24 W
1846 3548 PD
24 W
1860 3556 PD
24 W
1875 3564 PD
24 W
1889 3571 PD
24 W
1904 3578 PD
24 W
1918 3584 PD
24 W
1933 3591 PD
24 W
1947 3597 PD
24 W
1962 3602 PD
24 W
1976 3607 PD
24 W
1991 3612 PD
24 W
2005 3617 PD
24 W
2020 3621 PD
24 W
2034 3624 PD
24 W
2049 3628 PD
24 W
2063 3631 PD
24 W
2078 3634 PD
24 W
2092 3636 PD
24 W
2107 3638 PD
24 W
2121 3639 PD
24 W
2136 3641 PD
24 W
2150 3641 PD
24 W
2165 3642 PD
24 W
2179 3642 PD
24 W
2194 3642 PD
24 W
2208 3641 PD
24 W
2223 3640 PD
24 W
2237 3639 PD
24 W
2252 3637 PD
24 W
2266 3635 PD
24 W
2281 3632 PD
24 W
2295 3629 PD
24 W
2310 3626 PD
24 W
2324 3623 PD
24 W
2339 3619 PD
24 W
2353 3614 PD
24 W
2368 3610 PD
24 W
2383 3605 PD
24 W
2397 3599 PD
24 W
2412 3593 PD
24 W
2426 3587 PD
24 W
2441 3581 PD
24 W
2455 3574 PD
24 W
2470 3567 PD
24 W
2484 3559 PD
24 W
2499 3551 PD
24 W
2513 3543 PD
24 W
2528 3535 PD
24 W
2542 3526 PD
24 W
2557 3516 PD
24 W
2571 3507 PD
24 W
2586 3497 PD
24 W
2600 3486 PD
24 W
2615 3476 PD
24 W
2629 3465 PD
24 W
2644 3454 PD
24 W
2658 3442 PD
24 W
2673 3430 PD
24 W
2687 3418 PD
24 W
2702 3406 PD
24 W
2716 3393 PD
24 W
2731 3380 PD
24 W
2745 3366 PD
24 W
2760 3352 PD
24 W
2774 3338 PD
24 W
2789 3324 PD
24 W
2803 3310 PD
24 W
2818 3295 PD
24 W
2832 3280 PD
24 W
2847 3264 PD
24 W
2861 3249 PD
24 W
2876 3233 PD
24 W
2890 3217 PD
24 W
2905 3200 PD
24 W
2919 3184 PD
24 W
2934 3167 PD
24 W
2948 3150 PD
24 W
2963 3132 PD
24 W
2977 3115 PD
24 W
2992 3097 PD
24 W
3006 3079 PD
24 W
3021 3061 PD
24 W
3035 3042 PD
24 W
3050 3024 PD
24 W
3064 3005 PD
24 W
3079 2986 PD
24 W
3093 2967 PD
24 W
3108 2947 PD
24 W
3123 2928 PD
24 W
3137 2908 PD
24 W
3152 2888 PD
24 W
3166 2869 PD
24 W
3181 2848 PD
24 W
3195 2828 PD
24 W
3210 2808 PD
24 W
3224 2787 PD
24 W
3239 2767 PD
24 W
3253 2746 PD
24 W
3268 2725 PD
24 W
3282 2705 PD
24 W
3297 2684 PD
24 W
3311 2663 PD
24 W
3326 2641 PD
24 W
3340 2620 PD
24 W
3355 2599 PD
24 W
3369 2578 PD
24 W
3384 2556 PD
24 W
3398 2535 PD
24 W
3413 2513 PD
24 W
3427 2492 PD
24 W
3442 2470 PD
24 W
3456 2449 PD
24 W
3471 2428 PD
24 W
3485 2406 PD
24 W
3500 2385 PD
24 W
3514 2363 PD
24 W
3529 2342 PD
24 W
3543 2320 PD
24 W
3558 2299 PD
24 W
3572 2277 PD
24 W
3587 2256 PD
24 W
3601 2235 PD
24 W
3616 2214 PD
24 W
3630 2192 PD
24 W
3645 2171 PD
24 W
3659 2150 PD
24 W
3674 2130 PD
24 W
3688 2109 PD
24 W
3703 2088 PD
24 W
3717 2068 PD
24 W
3732 2047 PD
24 W
3746 2027 PD
24 W
3761 2007 PD
24 W
3775 1986 PD
24 W
3790 1967 PD
24 W
3804 1947 PD
24 W
3819 1927 PD
24 W
3833 1908 PD
24 W
3848 1888 PD
24 W
3863 1869 PD
24 W
3877 1850 PD
24 W
3892 1831 PD
24 W
3906 1813 PD
24 W
3921 1794 PD
24 W
3935 1776 PD
24 W
3950 1758 PD
24 W
3964 1740 PD
24 W
3979 1723 PD
24 W
3993 1705 PD
24 W
4008 1688 PD
24 W
4022 1671 PD
24 W
4037 1655 PD
24 W
4051 1638 PD
24 W
4066 1622 PD
24 W
4080 1606 PD
24 W
4095 1591 PD
24 W
4109 1575 PD
24 W
4124 1560 PD
24 W
4138 1545 PD
24 W
4153 1531 PD
24 W
4167 1517 PD
24 W
4182 1503 PD
24 W
4196 1489 PD
24 W
4211 1475 PD
24 W
4225 1462 PD
24 W
4240 1449 PD
24 W
4254 1437 PD
24 W
4269 1425 PD
24 W
4283 1413 PD
24 W
4298 1401 PD
24 W
4312 1390 PD
24 W
4327 1379 PD
24 W
4341 1369 PD
24 W
4356 1358 PD
24 W
4370 1348 PD
24 W
4385 1339 PD
24 W
4399 1329 PD
24 W
4414 1320 PD
24 W
4428 1312 PD
24 W
4443 1304 PD
24 W
4457 1296 PD
24 W
4472 1288 PD
24 W
4486 1281 PD
24 W
4501 1274 PD
24 W
4515 1268 PD
24 W
4530 1262 PD
24 W
4544 1256 PD
24 W
4559 1250 PD
24 W
4573 1245 PD
24 W
4588 1241 PD
24 W
4603 1236 PD
24 W
4617 1232 PD
24 W
4632 1229 PD
24 W
4646 1226 PD
24 W
4661 1223 PD
24 W
4675 1220 PD
24 W
4690 1218 PD
24 W
4704 1216 PD
24 W
4719 1215 PD
24 W
4733 1214 PD
24 W
4748 1213 PD
24 W
4762 1213 PD
24 W
4777 1213 PD
24 W
4791 1214 PD
24 W
4806 1214 PD
24 W
4820 1216 PD
24 W
4835 1217 PD
24 W
4849 1219 PD
24 W
4864 1221 PD
24 W
4878 1224 PD
24 W
4893 1227 PD
24 W
4907 1231 PD
24 W
4922 1234 PD
24 W
4936 1238 PD
24 W
4951 1243 PD
24 W
4965 1248 PD
24 W
4980 1253 PD
24 W
4994 1258 PD
24 W
5009 1264 PD
24 W
5023 1271 PD
24 W
5038 1277 PD
24 W
5052 1284 PD
24 W
5067 1291 PD
24 W
5081 1299 PD
24 W
5096 1307 PD
24 W
5110 1315 PD
24 W
5125 1324 PD
24 W
5139 1333 PD
24 W
5154 1342 PD
24 W
5168 1352 PD
24 W
5183 1362 PD
24 W
5197 1372 PD
24 W
5212 1383 PD
24 W
5226 1393 PD
24 W
5241 1405 PD
24 W
5255 1416 PD
24 W
5270 1428 PD
24 W
5284 1440 PD
24 W
5299 1452 PD
24 W
5313 1465 PD
24 W
5328 1478 PD
24 W
5343 1491 PD
24 W
5357 1505 PD
24 W
5372 1519 PD
24 W
5386 1533 PD
24 W
5401 1547 PD
24 W
5415 1562 PD
24 W
5430 1576 PD
24 W
5444 1592 PD
24 W
5459 1607 PD
24 W
5473 1623 PD
24 W
5488 1638 PD
24 W
5502 1654 PD
24 W
5517 1671 PD
24 W
5531 1687 PD
24 W
5546 1704 PD
24 W
5560 1721 PD
24 W
5575 1738 PD
24 W
5589 1755 PD
24 W
5604 1773 PD
24 W
5618 1791 PD
24 W
5633 1809 PD
24 W
5647 1827 PD
24 W
5662 1845 PD
24 W
5676 1864 PD
24 W
5691 1882 PD
24 W
5705 1901 PD
24 W
5720 1920 PD
24 W
5734 1939 PD
24 W
5749 1958 PD
24 W
5763 1978 PD
24 W
5778 1997 PD
24 W
5792 2017 PD
24 W
5807 2037 PD
24 W
5821 2057 PD
24 W
5836 2077 PD
24 W
5850 2097 PD
24 W
5865 2117 PD
24 W
5879 2137 PD
24 W
5894 2158 PD
24 W
5908 2178 PD
24 W
5923 2199 PD
24 W
5937 2219 PD
24 W
5952 2240 PD
24 W
5966 2261 PD
24 W
5981 2281 PD
24 W
5995 2302 PD
24 W
6010 2323 PD
24 W
6024 2344 PD
24 W
6039 2365 PD
24 W
6053 2386 PD
24 W
6068 2407 PD
24 W
6083 2428 PD
gs 874 377 5210 4103 rc
gr

24 W
/c10 { 1.000000 0.000000 0.000000 sr} bdef
c10
874 2453 PD
24 W
888 2478 PD
24 W
903 2503 PD
24 W
917 2529 PD
24 W
932 2554 PD
24 W
946 2579 PD
24 W
961 2604 PD
24 W
975 2629 PD
24 W
990 2654 PD
24 W
1004 2679 PD
24 W
1019 2704 PD
24 W
1033 2729 PD
24 W
1048 2754 PD
24 W
1062 2779 PD
24 W
1077 2803 PD
24 W
1091 2827 PD
24 W
1106 2852 PD
24 W
1120 2876 PD
24 W
1135 2900 PD
24 W
1149 2924 PD
24 W
1164 2947 PD
24 W
1178 2971 PD
24 W
1193 2994 PD
24 W
1207 3018 PD
24 W
1222 3041 PD
24 W
1236 3063 PD
24 W
1251 3086 PD
24 W
1265 3109 PD
24 W
1280 3131 PD
24 W
1294 3153 PD
24 W
1309 3175 PD
24 W
1323 3196 PD
24 W
1338 3218 PD
24 W
1352 3239 PD
24 W
1367 3259 PD
24 W
1381 3280 PD
24 W
1396 3300 PD
24 W
1410 3320 PD
24 W
1425 3340 PD
24 W
1439 3360 PD
24 W
1454 3379 PD
24 W
1468 3398 PD
24 W
1483 3417 PD
24 W
1497 3435 PD
24 W
1512 3453 PD
24 W
1526 3471 PD
24 W
1541 3488 PD
24 W
1555 3505 PD
24 W
1570 3522 PD
24 W
1584 3538 PD
24 W
1599 3554 PD
24 W
1613 3570 PD
24 W
1628 3585 PD
24 W
1643 3601 PD
24 W
1657 3615 PD
24 W
1672 3629 PD
24 W
1686 3643 PD
24 W
1701 3657 PD
24 W
1715 3670 PD
24 W
1730 3683 PD
24 W
1744 3695 PD
24 W
1759 3708 PD
24 W
1773 3719 PD
24 W
1788 3730 PD
24 W
1802 3741 PD
24 W
1817 3752 PD
24 W
1831 3762 PD
24 W
1846 3771 PD
24 W
1860 3781 PD
24 W
1875 3790 PD
24 W
1889 3798 PD
24 W
1904 3806 PD
24 W
1918 3814 PD
24 W
1933 3821 PD
24 W
1947 3828 PD
24 W
1962 3834 PD
24 W
1976 3840 PD
24 W
1991 3845 PD
24 W
2005 3850 PD
24 W
2020 3855 PD
24 W
2034 3859 PD
24 W
2049 3863 PD
24 W
2063 3866 PD
24 W
2078 3869 PD
24 W
2092 3871 PD
24 W
2107 3873 PD
24 W
2121 3875 PD
24 W
2136 3876 PD
24 W
2150 3877 PD
24 W
2165 3877 PD
24 W
2179 3877 PD
24 W
2194 3876 PD
24 W
2208 3875 PD
24 W
2223 3873 PD
24 W
2237 3871 PD
24 W
2252 3869 PD
24 W
2266 3866 PD
24 W
2281 3863 PD
24 W
2295 3859 PD
24 W
2310 3855 PD
24 W
2324 3850 PD
24 W
2339 3845 PD
24 W
2353 3840 PD
24 W
2368 3834 PD
24 W
2383 3828 PD
24 W
2397 3821 PD
24 W
2412 3814 PD
24 W
2426 3806 PD
24 W
2441 3798 PD
24 W
2455 3790 PD
24 W
2470 3781 PD
24 W
2484 3771 PD
24 W
2499 3762 PD
24 W
2513 3752 PD
24 W
2528 3741 PD
24 W
2542 3730 PD
24 W
2557 3719 PD
24 W
2571 3708 PD
24 W
2586 3695 PD
24 W
2600 3683 PD
24 W
2615 3670 PD
24 W
2629 3657 PD
24 W
2644 3643 PD
24 W
2658 3629 PD
24 W
2673 3615 PD
24 W
2687 3601 PD
24 W
2702 3585 PD
24 W
2716 3570 PD
24 W
2731 3554 PD
24 W
2745 3538 PD
24 W
2760 3522 PD
24 W
2774 3505 PD
24 W
2789 3488 PD
24 W
2803 3471 PD
24 W
2818 3453 PD
24 W
2832 3435 PD
24 W
2847 3417 PD
24 W
2861 3398 PD
24 W
2876 3379 PD
24 W
2890 3360 PD
24 W
2905 3340 PD
24 W
2919 3320 PD
24 W
2934 3300 PD
24 W
2948 3280 PD
24 W
2963 3259 PD
24 W
2977 3239 PD
24 W
2992 3218 PD
24 W
3006 3196 PD
24 W
3021 3175 PD
24 W
3035 3153 PD
24 W
3050 3131 PD
24 W
3064 3109 PD
24 W
3079 3086 PD
24 W
3093 3063 PD
24 W
3108 3041 PD
24 W
3123 3018 PD
24 W
3137 2994 PD
24 W
3152 2971 PD
24 W
3166 2947 PD
24 W
3181 2924 PD
24 W
3195 2900 PD
24 W
3210 2876 PD
24 W
3224 2852 PD
24 W
3239 2827 PD
24 W
3253 2803 PD
24 W
3268 2779 PD
24 W
3282 2754 PD
24 W
3297 2729 PD
24 W
3311 2704 PD
24 W
3326 2679 PD
24 W
3340 2654 PD
24 W
3355 2629 PD
24 W
3369 2604 PD
24 W
3384 2579 PD
24 W
3398 2554 PD
24 W
3413 2529 PD
24 W
3427 2503 PD
24 W
3442 2478 PD
24 W
3456 2453 PD
24 W
3471 2428 PD
24 W
3485 2402 PD
24 W
3500 2377 PD
24 W
3514 2352 PD
24 W
3529 2326 PD
24 W
3543 2301 PD
24 W
3558 2276 PD
24 W
3572 2251 PD
24 W
3587 2226 PD
24 W
3601 2201 PD
24 W
3616 2176 PD
24 W
3630 2151 PD
24 W
3645 2126 PD
24 W
3659 2101 PD
24 W
3674 2076 PD
24 W
3688 2052 PD
24 W
3703 2028 PD
24 W
3717 2003 PD
24 W
3732 1979 PD
24 W
3746 1955 PD
24 W
3761 1931 PD
24 W
3775 1908 PD
24 W
3790 1884 PD
24 W
3804 1861 PD
24 W
3819 1837 PD
24 W
3833 1814 PD
24 W
3848 1792 PD
24 W
3863 1769 PD
24 W
3877 1746 PD
24 W
3892 1724 PD
24 W
3906 1702 PD
24 W
3921 1680 PD
24 W
3935 1659 PD
24 W
3950 1637 PD
24 W
3964 1616 PD
24 W
3979 1596 PD
24 W
3993 1575 PD
24 W
4008 1555 PD
24 W
4022 1535 PD
24 W
4037 1515 PD
24 W
4051 1495 PD
24 W
4066 1476 PD
24 W
4080 1457 PD
24 W
4095 1438 PD
24 W
4109 1420 PD
24 W
4124 1402 PD
24 W
4138 1384 PD
24 W
4153 1367 PD
24 W
4167 1350 PD
24 W
4182 1333 PD
24 W
4196 1317 PD
24 W
4211 1301 PD
24 W
4225 1285 PD
24 W
4240 1270 PD
24 W
4254 1254 PD
24 W
4269 1240 PD
24 W
4283 1226 PD
24 W
4298 1212 PD
24 W
4312 1198 PD
24 W
4327 1185 PD
24 W
4341 1172 PD
24 W
4356 1160 PD
24 W
4370 1147 PD
24 W
4385 1136 PD
24 W
4399 1125 PD
24 W
4414 1114 PD
24 W
4428 1103 PD
24 W
4443 1093 PD
24 W
4457 1084 PD
24 W
4472 1074 PD
24 W
4486 1065 PD
24 W
4501 1057 PD
24 W
4515 1049 PD
24 W
4530 1041 PD
24 W
4544 1034 PD
24 W
4559 1027 PD
24 W
4573 1021 PD
24 W
4588 1015 PD
24 W
4603 1010 PD
24 W
4617 1005 PD
24 W
4632 1000 PD
24 W
4646 996 PD
24 W
4661 992 PD
24 W
4675 989 PD
24 W
4690 986 PD
24 W
4704 984 PD
24 W
4719 982 PD
24 W
4733 980 PD
24 W
4748 979 PD
24 W
4762 978 PD
24 W
4777 978 PD
24 W
4791 978 PD
24 W
4806 979 PD
24 W
4820 980 PD
24 W
4835 982 PD
24 W
4849 984 PD
24 W
4864 986 PD
24 W
4878 989 PD
24 W
4893 992 PD
24 W
4907 996 PD
24 W
4922 1000 PD
24 W
4936 1005 PD
24 W
4951 1010 PD
24 W
4965 1015 PD
24 W
4980 1021 PD
24 W
4994 1027 PD
24 W
5009 1034 PD
24 W
5023 1041 PD
24 W
5038 1049 PD
24 W
5052 1057 PD
24 W
5067 1065 PD
24 W
5081 1074 PD
24 W
5096 1084 PD
24 W
5110 1093 PD
24 W
5125 1103 PD
24 W
5139 1114 PD
24 W
5154 1125 PD
24 W
5168 1136 PD
24 W
5183 1147 PD
24 W
5197 1160 PD
24 W
5212 1172 PD
24 W
5226 1185 PD
24 W
5241 1198 PD
24 W
5255 1212 PD
24 W
5270 1226 PD
24 W
5284 1240 PD
24 W
5299 1254 PD
24 W
5313 1270 PD
24 W
5328 1285 PD
24 W
5343 1301 PD
24 W
5357 1317 PD
24 W
5372 1333 PD
24 W
5386 1350 PD
24 W
5401 1367 PD
24 W
5415 1384 PD
24 W
5430 1402 PD
24 W
5444 1420 PD
24 W
5459 1438 PD
24 W
5473 1457 PD
24 W
5488 1476 PD
24 W
5502 1495 PD
24 W
5517 1515 PD
24 W
5531 1535 PD
24 W
5546 1555 PD
24 W
5560 1575 PD
24 W
5575 1596 PD
24 W
5589 1616 PD
24 W
5604 1637 PD
24 W
5618 1659 PD
24 W
5633 1680 PD
24 W
5647 1702 PD
24 W
5662 1724 PD
24 W
5676 1746 PD
24 W
5691 1769 PD
24 W
5705 1792 PD
24 W
5720 1814 PD
24 W
5734 1837 PD
24 W
5749 1861 PD
24 W
5763 1884 PD
24 W
5778 1908 PD
24 W
5792 1931 PD
24 W
5807 1955 PD
24 W
5821 1979 PD
24 W
5836 2003 PD
24 W
5850 2028 PD
24 W
5865 2052 PD
24 W
5879 2076 PD
24 W
5894 2101 PD
24 W
5908 2126 PD
24 W
5923 2151 PD
24 W
5937 2176 PD
24 W
5952 2201 PD
24 W
5966 2226 PD
24 W
5981 2251 PD
24 W
5995 2276 PD
24 W
6010 2301 PD
24 W
6024 2326 PD
24 W
6039 2352 PD
24 W
6053 2377 PD
24 W
6068 2402 PD
24 W
6083 2428 PD
gs 874 377 5210 4103 rc
gr

24 W
/c11 { 0.000000 1.000000 0.000000 sr} bdef
c11
874 2458 PD
24 W
888 2489 PD
24 W
903 2520 PD
24 W
917 2550 PD
24 W
932 2581 PD
24 W
946 2611 PD
24 W
961 2642 PD
24 W
975 2672 PD
24 W
990 2703 PD
24 W
1004 2733 PD
24 W
1019 2763 PD
24 W
1033 2793 PD
24 W
1048 2823 PD
24 W
1062 2853 PD
24 W
1077 2882 PD
24 W
1091 2912 PD
24 W
1106 2941 PD
24 W
1120 2970 PD
24 W
1135 2999 PD
24 W
1149 3028 PD
24 W
1164 3056 PD
24 W
1178 3085 PD
24 W
1193 3113 PD
24 W
1207 3141 PD
24 W
1222 3168 PD
24 W
1236 3196 PD
24 W
1251 3223 PD
24 W
1265 3250 PD
24 W
1280 3276 PD
24 W
1294 3303 PD
24 W
1309 3329 PD
24 W
1323 3354 PD
24 W
1338 3380 PD
24 W
1352 3405 PD
24 W
1367 3429 PD
24 W
1381 3454 PD
24 W
1396 3478 PD
24 W
1410 3502 PD
24 W
1425 3525 PD
24 W
1439 3548 PD
24 W
1454 3571 PD
24 W
1468 3593 PD
24 W
1483 3615 PD
24 W
1497 3636 PD
24 W
1512 3657 PD
24 W
1526 3678 PD
24 W
1541 3698 PD
24 W
1555 3718 PD
24 W
1570 3737 PD
24 W
1584 3756 PD
24 W
1599 3775 PD
24 W
1613 3793 PD
24 W
1628 3811 PD
24 W
1643 3828 PD
24 W
1657 3845 PD
24 W
1672 3861 PD
24 W
1686 3877 PD
24 W
1701 3892 PD
24 W
1715 3907 PD
24 W
1730 3921 PD
24 W
1744 3935 PD
24 W
1759 3949 PD
24 W
1773 3962 PD
24 W
1788 3974 PD
24 W
1802 3986 PD
24 W
1817 3998 PD
24 W
1831 4009 PD
24 W
1846 4019 PD
24 W
1860 4029 PD
24 W
1875 4039 PD
24 W
1889 4048 PD
24 W
1904 4056 PD
24 W
1918 4064 PD
24 W
1933 4072 PD
24 W
1947 4079 PD
24 W
1962 4085 PD
24 W
1976 4091 PD
24 W
1991 4096 PD
24 W
2005 4101 PD
24 W
2020 4106 PD
24 W
2034 4109 PD
24 W
2049 4113 PD
24 W
2063 4116 PD
24 W
2078 4118 PD
24 W
2092 4120 PD
24 W
2107 4121 PD
24 W
2121 4122 PD
24 W
2136 4122 PD
24 W
2150 4122 PD
24 W
2165 4121 PD
24 W
2179 4119 PD
24 W
2194 4118 PD
24 W
2208 4115 PD
24 W
2223 4112 PD
24 W
2237 4109 PD
24 W
2252 4105 PD
24 W
2266 4101 PD
24 W
2281 4096 PD
24 W
2295 4091 PD
24 W
2310 4085 PD
24 W
2324 4078 PD
24 W
2339 4072 PD
24 W
2353 4064 PD
24 W
2368 4056 PD
24 W
2383 4048 PD
24 W
2397 4039 PD
24 W
2412 4030 PD
24 W
2426 4020 PD
24 W
2441 4010 PD
24 W
2455 4000 PD
24 W
2470 3988 PD
24 W
2484 3977 PD
24 W
2499 3965 PD
24 W
2513 3952 PD
24 W
2528 3940 PD
24 W
2542 3926 PD
24 W
2557 3912 PD
24 W
2571 3898 PD
24 W
2586 3884 PD
24 W
2600 3869 PD
24 W
2615 3853 PD
24 W
2629 3837 PD
24 W
2644 3821 PD
24 W
2658 3804 PD
24 W
2673 3787 PD
24 W
2687 3770 PD
24 W
2702 3752 PD
24 W
2716 3734 PD
24 W
2731 3715 PD
24 W
2745 3696 PD
24 W
2760 3677 PD
24 W
2774 3657 PD
24 W
2789 3637 PD
24 W
2803 3617 PD
24 W
2818 3596 PD
24 W
2832 3575 PD
24 W
2847 3554 PD
24 W
2861 3532 PD
24 W
2876 3510 PD
24 W
2890 3488 PD
24 W
2905 3465 PD
24 W
2919 3442 PD
24 W
2934 3419 PD
24 W
2948 3396 PD
24 W
2963 3372 PD
24 W
2977 3348 PD
24 W
2992 3324 PD
24 W
3006 3299 PD
24 W
3021 3275 PD
24 W
3035 3250 PD
24 W
3050 3224 PD
24 W
3064 3199 PD
24 W
3079 3173 PD
24 W
3093 3147 PD
24 W
3108 3121 PD
24 W
3123 3095 PD
24 W
3137 3069 PD
24 W
3152 3042 PD
24 W
3166 3015 PD
24 W
3181 2988 PD
24 W
3195 2961 PD
24 W
3210 2934 PD
24 W
3224 2907 PD
24 W
3239 2879 PD
24 W
3253 2852 PD
24 W
3268 2824 PD
24 W
3282 2796 PD
24 W
3297 2768 PD
24 W
3311 2740 PD
24 W
3326 2712 PD
24 W
3340 2684 PD
24 W
3355 2655 PD
24 W
3369 2627 PD
24 W
3384 2599 PD
24 W
3398 2570 PD
24 W
3413 2542 PD
24 W
3427 2513 PD
24 W
3442 2485 PD
24 W
3456 2456 PD
24 W
3471 2428 PD
24 W
3485 2399 PD
24 W
3500 2370 PD
24 W
3514 2342 PD
24 W
3529 2313 PD
24 W
3543 2285 PD
24 W
3558 2256 PD
24 W
3572 2228 PD
24 W
3587 2200 PD
24 W
3601 2171 PD
24 W
3616 2143 PD
24 W
3630 2115 PD
24 W
3645 2087 PD
24 W
3659 2059 PD
24 W
3674 2031 PD
24 W
3688 2003 PD
24 W
3703 1976 PD
24 W
3717 1948 PD
24 W
3732 1921 PD
24 W
3746 1894 PD
24 W
3761 1867 PD
24 W
3775 1840 PD
24 W
3790 1813 PD
24 W
3804 1786 PD
24 W
3819 1760 PD
24 W
3833 1734 PD
24 W
3848 1708 PD
24 W
3863 1682 PD
24 W
3877 1656 PD
24 W
3892 1631 PD
24 W
3906 1605 PD
24 W
3921 1580 PD
24 W
3935 1556 PD
24 W
3950 1531 PD
24 W
3964 1507 PD
24 W
3979 1483 PD
24 W
3993 1459 PD
24 W
4008 1436 PD
24 W
4022 1413 PD
24 W
4037 1390 PD
24 W
4051 1367 PD
24 W
4066 1345 PD
24 W
4080 1323 PD
24 W
4095 1301 PD
24 W
4109 1280 PD
24 W
4124 1259 PD
24 W
4138 1238 PD
24 W
4153 1218 PD
24 W
4167 1198 PD
24 W
4182 1178 PD
24 W
4196 1159 PD
24 W
4211 1140 PD
24 W
4225 1121 PD
24 W
4240 1103 PD
24 W
4254 1085 PD
24 W
4269 1068 PD
24 W
4283 1051 PD
24 W
4298 1034 PD
24 W
4312 1018 PD
24 W
4327 1002 PD
24 W
4341 986 PD
24 W
4356 971 PD
24 W
4370 957 PD
24 W
4385 943 PD
24 W
4399 929 PD
24 W
4414 915 PD
24 W
4428 903 PD
24 W
4443 890 PD
24 W
4457 878 PD
24 W
4472 867 PD
24 W
4486 855 PD
24 W
4501 845 PD
24 W
4515 835 PD
24 W
4530 825 PD
24 W
4544 816 PD
24 W
4559 807 PD
24 W
4573 799 PD
24 W
4588 791 PD
24 W
4603 783 PD
24 W
4617 777 PD
24 W
4632 770 PD
24 W
4646 764 PD
24 W
4661 759 PD
24 W
4675 754 PD
24 W
4690 750 PD
24 W
4704 746 PD
24 W
4719 743 PD
24 W
4733 740 PD
24 W
4748 737 PD
24 W
4762 736 PD
24 W
4777 734 PD
24 W
4791 733 PD
24 W
4806 733 PD
24 W
4820 733 PD
24 W
4835 734 PD
24 W
4849 735 PD
24 W
4864 737 PD
24 W
4878 739 PD
24 W
4893 742 PD
24 W
4907 746 PD
24 W
4922 749 PD
24 W
4936 754 PD
24 W
4951 759 PD
24 W
4965 764 PD
24 W
4980 770 PD
24 W
4994 776 PD
24 W
5009 783 PD
24 W
5023 791 PD
24 W
5038 799 PD
24 W
5052 807 PD
24 W
5067 816 PD
24 W
5081 826 PD
24 W
5096 836 PD
24 W
5110 846 PD
24 W
5125 857 PD
24 W
5139 869 PD
24 W
5154 881 PD
24 W
5168 893 PD
24 W
5183 906 PD
24 W
5197 920 PD
24 W
5212 934 PD
24 W
5226 948 PD
24 W
5241 963 PD
24 W
5255 978 PD
24 W
5270 994 PD
24 W
5284 1010 PD
24 W
5299 1027 PD
24 W
5313 1044 PD
24 W
5328 1062 PD
24 W
5343 1080 PD
24 W
5357 1099 PD
24 W
5372 1118 PD
24 W
5386 1137 PD
24 W
5401 1157 PD
24 W
5415 1177 PD
24 W
5430 1198 PD
24 W
5444 1219 PD
24 W
5459 1240 PD
24 W
5473 1262 PD
24 W
5488 1284 PD
24 W
5502 1307 PD
24 W
5517 1330 PD
24 W
5531 1353 PD
24 W
5546 1377 PD
24 W
5560 1401 PD
24 W
5575 1426 PD
24 W
5589 1450 PD
24 W
5604 1475 PD
24 W
5618 1501 PD
24 W
5633 1526 PD
24 W
5647 1552 PD
24 W
5662 1579 PD
24 W
5676 1605 PD
24 W
5691 1632 PD
24 W
5705 1659 PD
24 W
5720 1687 PD
24 W
5734 1714 PD
24 W
5749 1742 PD
24 W
5763 1770 PD
24 W
5778 1799 PD
24 W
5792 1827 PD
24 W
5807 1856 PD
24 W
5821 1885 PD
24 W
5836 1914 PD
24 W
5850 1943 PD
24 W
5865 1973 PD
24 W
5879 2002 PD
24 W
5894 2032 PD
24 W
5908 2062 PD
24 W
5923 2092 PD
24 W
5937 2122 PD
24 W
5952 2152 PD
24 W
5966 2183 PD
24 W
5981 2213 PD
24 W
5995 2244 PD
24 W
6010 2274 PD
24 W
6024 2305 PD
24 W
6039 2335 PD
24 W
6053 2366 PD
24 W
6068 2397 PD
24 W
6083 2428 PD
gs 874 377 5210 4103 rc
gr

0 sg
2337 4974 mt 
(Degrees of Rotation) s
%%IncludeResource: font Symbol
/Symbol /ISOLatin1Encoding 240 FMSR

 441 2754 mt  -90 rotate
(D) s
90 rotate
%%IncludeResource: font Helvetica-Bold
/Helvetica-Bold /ISOLatin1Encoding 240 FMSR

 441 2608 mt  -90 rotate
( IMA) s
90 rotate
%%IncludeResource: font Helvetica
/Helvetica /ISOLatin1Encoding 120 FMSR

 857 4522 mt 
( ) s
6067  419 mt 
( ) s
1 sg
0 1322 1423 0 0 -1322 4601 1759 4 MP
PP
-1423 0 0 1322 1423 0 0 -1322 4601 1759 5 MP stroke
4 w
DO
SO
6 w
0 sg
4601 1759 mt 6024 1759 L
4601  437 mt 6024  437 L
4601 1759 mt 4601  437 L
6024 1759 mt 6024  437 L
4601 1759 mt 6024 1759 L
4601 1759 mt 4601  437 L
4601 1759 mt 6024 1759 L
4601  437 mt 6024  437 L
4601 1759 mt 4601  437 L
6024 1759 mt 6024  437 L
%%IncludeResource: font Symbol
/Symbol /ISOLatin1Encoding 240 FMSR

5032  704 mt 
(F) s
%%IncludeResource: font Helvetica-Bold
/Helvetica-Bold /ISOLatin1Encoding 240 FMSR

5215  704 mt 
( = ) s
%%IncludeResource: font Symbol
/Symbol /ISOLatin1Encoding 240 FMSR

5488  704 mt 
(p) s
%%IncludeResource: font Helvetica-Bold
/Helvetica-Bold /ISOLatin1Encoding 240 FMSR

5619  704 mt 
( / 6) s
gs 4601 437 1424 1323 rc
gs 4759 544 147 147 rc
24 W
c8
4832 617 PD
gr

c8
gr

c8
0 sg
%%IncludeResource: font Symbol
/Symbol /ISOLatin1Encoding 240 FMSR

5032 1024 mt 
(F) s
%%IncludeResource: font Helvetica-Bold
/Helvetica-Bold /ISOLatin1Encoding 240 FMSR

5215 1024 mt 
( = ) s
%%IncludeResource: font Symbol
/Symbol /ISOLatin1Encoding 240 FMSR

5488 1024 mt 
(p) s
%%IncludeResource: font Helvetica-Bold
/Helvetica-Bold /ISOLatin1Encoding 240 FMSR

5619 1024 mt 
( / 4) s
gs 4601 437 1424 1323 rc
gs 4759 864 147 147 rc
24 W
c9
4832 937 PD
gr

c9
gr

c9
0 sg
%%IncludeResource: font Symbol
/Symbol /ISOLatin1Encoding 240 FMSR

5032 1345 mt 
(F) s
%%IncludeResource: font Helvetica-Bold
/Helvetica-Bold /ISOLatin1Encoding 240 FMSR

5215 1345 mt 
( = ) s
%%IncludeResource: font Symbol
/Symbol /ISOLatin1Encoding 240 FMSR

5488 1345 mt 
(p) s
%%IncludeResource: font Helvetica-Bold
/Helvetica-Bold /ISOLatin1Encoding 240 FMSR

5619 1345 mt 
( / 3) s
gs 4601 437 1424 1323 rc
gs 4759 1185 147 147 rc
24 W
c10
4832 1258 PD
gr

c10
gr

c10
0 sg
%%IncludeResource: font Symbol
/Symbol /ISOLatin1Encoding 240 FMSR

5032 1665 mt 
(F) s
%%IncludeResource: font Helvetica-Bold
/Helvetica-Bold /ISOLatin1Encoding 240 FMSR

5215 1665 mt 
( = ) s
%%IncludeResource: font Symbol
/Symbol /ISOLatin1Encoding 240 FMSR

5488 1665 mt 
(p) s
%%IncludeResource: font Helvetica-Bold
/Helvetica-Bold /ISOLatin1Encoding 240 FMSR

5619 1665 mt 
( / 2) s
gs 4601 437 1424 1323 rc
gs 4759 1505 147 147 rc
24 W
c11
4832 1578 PD
gr

c11
gr

c11

end %%Color Dict

eplot
%%EndObject

epage
end

showpage

%%Trailer
%%EOF
