%!PS-Adobe-3.0 EPSF-3.0
%%Creator: MATLAB, The MathWorks, Inc. Version 7.12.0.635 (R2011a). Operating System: Darwin 10.8.0 Darwin Kernel Version 10.8.0: Tue Jun  7 16:33:36 PDT 2011; root:xnu-1504.15.3~1/RELEASE_I386 i386.
%%Title: /Users/adamhammouda/Dropbox/Common/ResearchInterests/VinayBunion/FinalSimulationCode/docs/figures/height_results.eps
%%CreationDate: 02/18/2014  09:46:38
%%DocumentNeededFonts: Helvetica-Bold
%%+ Helvetica
%%DocumentProcessColors: Cyan Magenta Yellow Black
%%LanguageLevel: 2
%%Pages: 1
%%BoundingBox:    25   186   585   606
%%EndComments

%%BeginProlog
% MathWorks dictionary
/MathWorks 160 dict begin
% definition operators
/bdef {bind def} bind def
/ldef {load def} bind def
/xdef {exch def} bdef
/xstore {exch store} bdef
% operator abbreviations
/c  /clip ldef
/cc /concat ldef
/cp /closepath ldef
/gr /grestore ldef
/gs /gsave ldef
/mt /moveto ldef
/np /newpath ldef
/cm /currentmatrix ldef
/sm /setmatrix ldef
/rm /rmoveto ldef
/rl /rlineto ldef
/s {show newpath} bdef
/sc {setcmykcolor} bdef
/sr /setrgbcolor ldef
/sg /setgray ldef
/w /setlinewidth ldef
/j /setlinejoin ldef
/cap /setlinecap ldef
/rc {rectclip} bdef
/rf {rectfill} bdef
% page state control
/pgsv () def
/bpage {/pgsv save def} bdef
/epage {pgsv restore} bdef
/bplot /gsave ldef
/eplot {stroke grestore} bdef
% orientation switch
/portraitMode 0 def /landscapeMode 1 def /rotateMode 2 def
% coordinate system mappings
/dpi2point 0 def
% font control
/FontSize 0 def
/FMS {/FontSize xstore findfont [FontSize 0 0 FontSize neg 0 0]
  makefont setfont} bdef
/reencode {exch dup where {pop load} {pop StandardEncoding} ifelse
  exch dup 3 1 roll findfont dup length dict begin
  { 1 index /FID ne {def}{pop pop} ifelse } forall
  /Encoding exch def currentdict end definefont pop} bdef
/isroman {findfont /CharStrings get /Agrave known} bdef
/FMSR {3 1 roll 1 index dup isroman {reencode} {pop pop} ifelse
  exch FMS} bdef
/csm {1 dpi2point div -1 dpi2point div scale neg translate
 dup landscapeMode eq {pop -90 rotate}
  {rotateMode eq {90 rotate} if} ifelse} bdef
% line types: solid, dotted, dashed, dotdash
/SO { [] 0 setdash } bdef
/DO { [.5 dpi2point mul 4 dpi2point mul] 0 setdash } bdef
/DA { [6 dpi2point mul] 0 setdash } bdef
/DD { [.5 dpi2point mul 4 dpi2point mul 6 dpi2point mul 4
  dpi2point mul] 0 setdash } bdef
% macros for lines and objects
/L {lineto stroke} bdef
/MP {3 1 roll moveto 1 sub {rlineto} repeat} bdef
/AP {{rlineto} repeat} bdef
/PDlw -1 def
/W {/PDlw currentlinewidth def setlinewidth} def
/PP {closepath eofill} bdef
/DP {closepath stroke} bdef
/MR {4 -2 roll moveto dup  0 exch rlineto exch 0 rlineto
  neg 0 exch rlineto closepath} bdef
/FR {MR stroke} bdef
/PR {MR fill} bdef
/L1i {{currentfile picstr readhexstring pop} image} bdef
/tMatrix matrix def
/MakeOval {newpath tMatrix currentmatrix pop translate scale
0 0 1 0 360 arc tMatrix setmatrix} bdef
/FO {MakeOval stroke} bdef
/PO {MakeOval fill} bdef
/PD {currentlinewidth 2 div 0 360 arc fill
   PDlw -1 eq not {PDlw w /PDlw -1 def} if} def
/FA {newpath tMatrix currentmatrix pop translate scale
  0 0 1 5 -2 roll arc tMatrix setmatrix stroke} bdef
/PA {newpath tMatrix currentmatrix pop	translate 0 0 moveto scale
  0 0 1 5 -2 roll arc closepath tMatrix setmatrix fill} bdef
/FAn {newpath tMatrix currentmatrix pop translate scale
  0 0 1 5 -2 roll arcn tMatrix setmatrix stroke} bdef
/PAn {newpath tMatrix currentmatrix pop translate 0 0 moveto scale
  0 0 1 5 -2 roll arcn closepath tMatrix setmatrix fill} bdef
/vradius 0 def /hradius 0 def /lry 0 def
/lrx 0 def /uly 0 def /ulx 0 def /rad 0 def
/MRR {/vradius xdef /hradius xdef /lry xdef /lrx xdef /uly xdef
  /ulx xdef newpath tMatrix currentmatrix pop ulx hradius add uly
  vradius add translate hradius vradius scale 0 0 1 180 270 arc 
  tMatrix setmatrix lrx hradius sub uly vradius add translate
  hradius vradius scale 0 0 1 270 360 arc tMatrix setmatrix
  lrx hradius sub lry vradius sub translate hradius vradius scale
  0 0 1 0 90 arc tMatrix setmatrix ulx hradius add lry vradius sub
  translate hradius vradius scale 0 0 1 90 180 arc tMatrix setmatrix
  closepath} bdef
/FRR {MRR stroke } bdef
/PRR {MRR fill } bdef
/MlrRR {/lry xdef /lrx xdef /uly xdef /ulx xdef /rad lry uly sub 2 div def
  newpath tMatrix currentmatrix pop ulx rad add uly rad add translate
  rad rad scale 0 0 1 90 270 arc tMatrix setmatrix lrx rad sub lry rad
  sub translate rad rad scale 0 0 1 270 90 arc tMatrix setmatrix
  closepath} bdef
/FlrRR {MlrRR stroke } bdef
/PlrRR {MlrRR fill } bdef
/MtbRR {/lry xdef /lrx xdef /uly xdef /ulx xdef /rad lrx ulx sub 2 div def
  newpath tMatrix currentmatrix pop ulx rad add uly rad add translate
  rad rad scale 0 0 1 180 360 arc tMatrix setmatrix lrx rad sub lry rad
  sub translate rad rad scale 0 0 1 0 180 arc tMatrix setmatrix
  closepath} bdef
/FtbRR {MtbRR stroke } bdef
/PtbRR {MtbRR fill } bdef
/stri 6 array def /dtri 6 array def
/smat 6 array def /dmat 6 array def
/tmat1 6 array def /tmat2 6 array def /dif 3 array def
/asub {/ind2 exch def /ind1 exch def dup dup
  ind1 get exch ind2 get sub exch } bdef
/tri_to_matrix {
  2 0 asub 3 1 asub 4 0 asub 5 1 asub
  dup 0 get exch 1 get 7 -1 roll astore } bdef
/compute_transform {
  dmat dtri tri_to_matrix tmat1 invertmatrix 
  smat stri tri_to_matrix tmat2 concatmatrix } bdef
/ds {stri astore pop} bdef
/dt {dtri astore pop} bdef
/db {2 copy /cols xdef /rows xdef mul dup 3 mul string
  currentfile 
  3 index 0 eq {/ASCIIHexDecode filter}
  {/ASCII85Decode filter 3 index 2 eq {/RunLengthDecode filter} if }
  ifelse exch readstring pop
  dup 0 3 index getinterval /rbmap xdef
  dup 2 index dup getinterval /gbmap xdef
  1 index dup 2 mul exch getinterval /bbmap xdef pop pop}bdef
/it {gs np dtri aload pop moveto lineto lineto cp c
  cols rows 8 compute_transform 
  rbmap gbmap bbmap true 3 colorimage gr}bdef
/il {newpath moveto lineto stroke}bdef
currentdict end def
%%EndProlog

%%BeginSetup
MathWorks begin

0 cap

end
%%EndSetup

%%Page: 1 1
%%BeginPageSetup
%%PageBoundingBox:    25   186   585   606
MathWorks begin
bpage
%%EndPageSetup

%%BeginObject: obj1
bplot

/dpi2point 12 def
portraitMode 0300 7272 csm

    0     0  6721  5033 rc
87 dict begin %Colortable dictionary
/c0 { 0.000000 0.000000 0.000000 sr} bdef
/c1 { 1.000000 1.000000 1.000000 sr} bdef
/c2 { 0.900000 0.000000 0.000000 sr} bdef
/c3 { 0.000000 0.820000 0.000000 sr} bdef
/c4 { 0.000000 0.000000 0.800000 sr} bdef
/c5 { 0.910000 0.820000 0.320000 sr} bdef
/c6 { 1.000000 0.260000 0.820000 sr} bdef
/c7 { 0.000000 0.820000 0.820000 sr} bdef
c0
1 j
1 sg
   0    0 6722 5034 rf
6 w
0 4102 5209 0 0 -4102 874 4479 4 MP
PP
-5209 0 0 4102 5209 0 0 -4102 874 4479 5 MP stroke
4 w
DO
SO
6 w
0 sg
 874 4479 mt 6083 4479 L
 874 4479 mt  874  377 L
1584 4479 mt 1584 4426 L
%%IncludeResource: font Helvetica-Bold
/Helvetica-Bold /ISOLatin1Encoding 240 FMSR

1451 4743 mt 
(50) s
2310 4479 mt 2310 4426 L
2110 4743 mt 
(100) s
3035 4479 mt 3035 4426 L
2835 4743 mt 
(150) s
3761 4479 mt 3761 4426 L
3561 4743 mt 
(200) s
4486 4479 mt 4486 4426 L
4286 4743 mt 
(250) s
5212 4479 mt 5212 4426 L
5012 4743 mt 
(300) s
5937 4479 mt 5937 4426 L
5737 4743 mt 
(350) s
 874 4479 mt  926 4479 L
 566 4571 mt 
(-1) s
 874 3795 mt  926 3795 L
 706 3887 mt 
(0) s
 874 3111 mt  926 3111 L
 706 3203 mt 
(1) s
 874 2428 mt  926 2428 L
 706 2520 mt 
(2) s
 874 1744 mt  926 1744 L
 706 1836 mt 
(3) s
 874 1060 mt  926 1060 L
 706 1152 mt 
(4) s
 874  377 mt  926  377 L
 706  469 mt 
(5) s
gs 874 377 5210 4103 rc
gr

24 W
/c8 { 0.000000 0.000000 1.000000 sr} bdef
c8
874 3795 PD
24 W
888 3794 PD
24 W
903 3793 PD
24 W
917 3791 PD
24 W
932 3789 PD
24 W
946 3787 PD
24 W
961 3784 PD
24 W
975 3781 PD
24 W
990 3777 PD
24 W
1004 3773 PD
24 W
1019 3769 PD
24 W
1033 3764 PD
24 W
1048 3758 PD
24 W
1062 3752 PD
24 W
1077 3746 PD
24 W
1091 3739 PD
24 W
1106 3732 PD
24 W
1120 3725 PD
24 W
1135 3717 PD
24 W
1149 3709 PD
24 W
1164 3700 PD
24 W
1178 3691 PD
24 W
1193 3681 PD
24 W
1207 3671 PD
24 W
1222 3661 PD
24 W
1236 3650 PD
24 W
1251 3639 PD
24 W
1265 3627 PD
24 W
1280 3616 PD
24 W
1294 3603 PD
24 W
1309 3591 PD
24 W
1323 3578 PD
24 W
1338 3564 PD
24 W
1352 3550 PD
24 W
1367 3536 PD
24 W
1381 3522 PD
24 W
1396 3507 PD
24 W
1410 3492 PD
24 W
1425 3476 PD
24 W
1439 3460 PD
24 W
1454 3444 PD
24 W
1468 3428 PD
24 W
1483 3411 PD
24 W
1497 3394 PD
24 W
1512 3376 PD
24 W
1526 3358 PD
24 W
1541 3340 PD
24 W
1555 3322 PD
24 W
1570 3303 PD
24 W
1584 3284 PD
24 W
1599 3265 PD
24 W
1613 3245 PD
24 W
1628 3225 PD
24 W
1643 3205 PD
24 W
1657 3185 PD
24 W
1672 3165 PD
24 W
1686 3144 PD
24 W
1701 3123 PD
24 W
1715 3101 PD
24 W
1730 3080 PD
24 W
1744 3058 PD
24 W
1759 3036 PD
24 W
1773 3014 PD
24 W
1788 2992 PD
24 W
1802 2969 PD
24 W
1817 2947 PD
24 W
1831 2924 PD
24 W
1846 2901 PD
24 W
1860 2877 PD
24 W
1875 2854 PD
24 W
1889 2830 PD
24 W
1904 2807 PD
24 W
1918 2783 PD
24 W
1933 2759 PD
24 W
1947 2735 PD
24 W
1962 2711 PD
24 W
1976 2687 PD
24 W
1991 2662 PD
24 W
2005 2638 PD
24 W
2020 2613 PD
24 W
2034 2589 PD
24 W
2049 2564 PD
24 W
2063 2539 PD
24 W
2078 2514 PD
24 W
2092 2490 PD
24 W
2107 2465 PD
24 W
2121 2440 PD
24 W
2136 2415 PD
24 W
2150 2390 PD
24 W
2165 2365 PD
24 W
2179 2340 PD
24 W
2194 2315 PD
24 W
2208 2290 PD
24 W
2223 2265 PD
24 W
2237 2240 PD
24 W
2252 2215 PD
24 W
2266 2191 PD
24 W
2281 2166 PD
24 W
2295 2141 PD
24 W
2310 2117 PD
24 W
2324 2092 PD
24 W
2339 2068 PD
24 W
2353 2043 PD
24 W
2368 2019 PD
24 W
2383 1995 PD
24 W
2397 1971 PD
24 W
2412 1947 PD
24 W
2426 1923 PD
24 W
2441 1899 PD
24 W
2455 1876 PD
24 W
2470 1853 PD
24 W
2484 1829 PD
24 W
2499 1806 PD
24 W
2513 1783 PD
24 W
2528 1761 PD
24 W
2542 1738 PD
24 W
2557 1716 PD
24 W
2571 1694 PD
24 W
2586 1672 PD
24 W
2600 1650 PD
24 W
2615 1628 PD
24 W
2629 1607 PD
24 W
2644 1586 PD
24 W
2658 1565 PD
24 W
2673 1545 PD
24 W
2687 1524 PD
24 W
2702 1504 PD
24 W
2716 1485 PD
24 W
2731 1465 PD
24 W
2745 1446 PD
24 W
2760 1427 PD
24 W
2774 1408 PD
24 W
2789 1390 PD
24 W
2803 1372 PD
24 W
2818 1354 PD
24 W
2832 1336 PD
24 W
2847 1319 PD
24 W
2861 1302 PD
24 W
2876 1286 PD
24 W
2890 1270 PD
24 W
2905 1254 PD
24 W
2919 1238 PD
24 W
2934 1223 PD
24 W
2948 1208 PD
24 W
2963 1194 PD
24 W
2977 1180 PD
24 W
2992 1166 PD
24 W
3006 1152 PD
24 W
3021 1139 PD
24 W
3035 1127 PD
24 W
3050 1114 PD
24 W
3064 1102 PD
24 W
3079 1091 PD
24 W
3093 1080 PD
24 W
3108 1069 PD
24 W
3123 1059 PD
24 W
3137 1049 PD
24 W
3152 1039 PD
24 W
3166 1030 PD
24 W
3181 1021 PD
24 W
3195 1013 PD
24 W
3210 1005 PD
24 W
3224 998 PD
24 W
3239 990 PD
24 W
3253 984 PD
24 W
3268 978 PD
24 W
3282 972 PD
24 W
3297 966 PD
24 W
3311 961 PD
24 W
3326 957 PD
24 W
3340 953 PD
24 W
3355 949 PD
24 W
3369 946 PD
24 W
3384 943 PD
24 W
3398 940 PD
24 W
3413 939 PD
24 W
3427 937 PD
24 W
3442 936 PD
24 W
3456 935 PD
24 W
3471 935 PD
24 W
3485 935 PD
24 W
3500 936 PD
24 W
3514 937 PD
24 W
3529 939 PD
24 W
3543 940 PD
24 W
3558 943 PD
24 W
3572 946 PD
24 W
3587 949 PD
24 W
3601 953 PD
24 W
3616 957 PD
24 W
3630 961 PD
24 W
3645 966 PD
24 W
3659 972 PD
24 W
3674 978 PD
24 W
3688 984 PD
24 W
3703 990 PD
24 W
3717 998 PD
24 W
3732 1005 PD
24 W
3746 1013 PD
24 W
3761 1021 PD
24 W
3775 1030 PD
24 W
3790 1039 PD
24 W
3804 1049 PD
24 W
3819 1059 PD
24 W
3833 1069 PD
24 W
3848 1080 PD
24 W
3863 1091 PD
24 W
3877 1102 PD
24 W
3892 1114 PD
24 W
3906 1127 PD
24 W
3921 1139 PD
24 W
3935 1152 PD
24 W
3950 1166 PD
24 W
3964 1180 PD
24 W
3979 1194 PD
24 W
3993 1208 PD
24 W
4008 1223 PD
24 W
4022 1238 PD
24 W
4037 1254 PD
24 W
4051 1270 PD
24 W
4066 1286 PD
24 W
4080 1302 PD
24 W
4095 1319 PD
24 W
4109 1336 PD
24 W
4124 1354 PD
24 W
4138 1372 PD
24 W
4153 1390 PD
24 W
4167 1408 PD
24 W
4182 1427 PD
24 W
4196 1446 PD
24 W
4211 1465 PD
24 W
4225 1485 PD
24 W
4240 1504 PD
24 W
4254 1524 PD
24 W
4269 1545 PD
24 W
4283 1565 PD
24 W
4298 1586 PD
24 W
4312 1607 PD
24 W
4327 1628 PD
24 W
4341 1650 PD
24 W
4356 1672 PD
24 W
4370 1694 PD
24 W
4385 1716 PD
24 W
4399 1738 PD
24 W
4414 1761 PD
24 W
4428 1783 PD
24 W
4443 1806 PD
24 W
4457 1829 PD
24 W
4472 1853 PD
24 W
4486 1876 PD
24 W
4501 1899 PD
24 W
4515 1923 PD
24 W
4530 1947 PD
24 W
4544 1971 PD
24 W
4559 1995 PD
24 W
4573 2019 PD
24 W
4588 2043 PD
24 W
4603 2068 PD
24 W
4617 2092 PD
24 W
4632 2117 PD
24 W
4646 2141 PD
24 W
4661 2166 PD
24 W
4675 2191 PD
24 W
4690 2215 PD
24 W
4704 2240 PD
24 W
4719 2265 PD
24 W
4733 2290 PD
24 W
4748 2315 PD
24 W
4762 2340 PD
24 W
4777 2365 PD
24 W
4791 2390 PD
24 W
4806 2415 PD
24 W
4820 2440 PD
24 W
4835 2465 PD
24 W
4849 2490 PD
24 W
4864 2514 PD
24 W
4878 2539 PD
24 W
4893 2564 PD
24 W
4907 2589 PD
24 W
4922 2613 PD
24 W
4936 2638 PD
24 W
4951 2662 PD
24 W
4965 2687 PD
24 W
4980 2711 PD
24 W
4994 2735 PD
24 W
5009 2759 PD
24 W
5023 2783 PD
24 W
5038 2807 PD
24 W
5052 2830 PD
24 W
5067 2854 PD
24 W
5081 2877 PD
24 W
5096 2901 PD
24 W
5110 2924 PD
24 W
5125 2947 PD
24 W
5139 2969 PD
24 W
5154 2992 PD
24 W
5168 3014 PD
24 W
5183 3036 PD
24 W
5197 3058 PD
24 W
5212 3080 PD
24 W
5226 3101 PD
24 W
5241 3123 PD
24 W
5255 3144 PD
24 W
5270 3165 PD
24 W
5284 3185 PD
24 W
5299 3205 PD
24 W
5313 3225 PD
24 W
5328 3245 PD
24 W
5343 3265 PD
24 W
5357 3284 PD
24 W
5372 3303 PD
24 W
5386 3322 PD
24 W
5401 3340 PD
24 W
5415 3358 PD
24 W
5430 3376 PD
24 W
5444 3394 PD
24 W
5459 3411 PD
24 W
5473 3428 PD
24 W
5488 3444 PD
24 W
5502 3460 PD
24 W
5517 3476 PD
24 W
5531 3492 PD
24 W
5546 3507 PD
24 W
5560 3522 PD
24 W
5575 3536 PD
24 W
5589 3550 PD
24 W
5604 3564 PD
24 W
5618 3578 PD
24 W
5633 3591 PD
24 W
5647 3603 PD
24 W
5662 3616 PD
24 W
5676 3627 PD
24 W
5691 3639 PD
24 W
5705 3650 PD
24 W
5720 3661 PD
24 W
5734 3671 PD
24 W
5749 3681 PD
24 W
5763 3691 PD
24 W
5778 3700 PD
24 W
5792 3709 PD
24 W
5807 3717 PD
24 W
5821 3725 PD
24 W
5836 3732 PD
24 W
5850 3739 PD
24 W
5865 3746 PD
24 W
5879 3752 PD
24 W
5894 3758 PD
24 W
5908 3764 PD
24 W
5923 3769 PD
24 W
5937 3773 PD
24 W
5952 3777 PD
24 W
5966 3781 PD
24 W
5981 3784 PD
24 W
5995 3787 PD
24 W
6010 3789 PD
24 W
6024 3791 PD
24 W
6039 3793 PD
24 W
6053 3794 PD
24 W
6068 3795 PD
24 W
6083 3795 PD
gs 874 377 5210 4103 rc
gr

24 W
/c9 { 0.000000 1.000000 1.000000 sr} bdef
c9
874 3795 PD
24 W
888 3794 PD
24 W
903 3793 PD
24 W
917 3791 PD
24 W
932 3790 PD
24 W
946 3787 PD
24 W
961 3784 PD
24 W
975 3781 PD
24 W
990 3778 PD
24 W
1004 3774 PD
24 W
1019 3769 PD
24 W
1033 3764 PD
24 W
1048 3759 PD
24 W
1062 3753 PD
24 W
1077 3747 PD
24 W
1091 3741 PD
24 W
1106 3734 PD
24 W
1120 3726 PD
24 W
1135 3719 PD
24 W
1149 3710 PD
24 W
1164 3702 PD
24 W
1178 3693 PD
24 W
1193 3683 PD
24 W
1207 3674 PD
24 W
1222 3664 PD
24 W
1236 3653 PD
24 W
1251 3642 PD
24 W
1265 3631 PD
24 W
1280 3619 PD
24 W
1294 3607 PD
24 W
1309 3595 PD
24 W
1323 3582 PD
24 W
1338 3569 PD
24 W
1352 3555 PD
24 W
1367 3541 PD
24 W
1381 3527 PD
24 W
1396 3513 PD
24 W
1410 3498 PD
24 W
1425 3483 PD
24 W
1439 3467 PD
24 W
1454 3451 PD
24 W
1468 3435 PD
24 W
1483 3418 PD
24 W
1497 3402 PD
24 W
1512 3385 PD
24 W
1526 3367 PD
24 W
1541 3349 PD
24 W
1555 3331 PD
24 W
1570 3313 PD
24 W
1584 3294 PD
24 W
1599 3276 PD
24 W
1613 3256 PD
24 W
1628 3237 PD
24 W
1643 3217 PD
24 W
1657 3197 PD
24 W
1672 3177 PD
24 W
1686 3157 PD
24 W
1701 3136 PD
24 W
1715 3115 PD
24 W
1730 3094 PD
24 W
1744 3073 PD
24 W
1759 3052 PD
24 W
1773 3030 PD
24 W
1788 3008 PD
24 W
1802 2986 PD
24 W
1817 2964 PD
24 W
1831 2941 PD
24 W
1846 2919 PD
24 W
1860 2896 PD
24 W
1875 2873 PD
24 W
1889 2850 PD
24 W
1904 2827 PD
24 W
1918 2804 PD
24 W
1933 2780 PD
24 W
1947 2757 PD
24 W
1962 2733 PD
24 W
1976 2709 PD
24 W
1991 2685 PD
24 W
2005 2661 PD
24 W
2020 2637 PD
24 W
2034 2613 PD
24 W
2049 2589 PD
24 W
2063 2565 PD
24 W
2078 2540 PD
24 W
2092 2516 PD
24 W
2107 2492 PD
24 W
2121 2467 PD
24 W
2136 2443 PD
24 W
2150 2418 PD
24 W
2165 2394 PD
24 W
2179 2370 PD
24 W
2194 2345 PD
24 W
2208 2321 PD
24 W
2223 2296 PD
24 W
2237 2272 PD
24 W
2252 2248 PD
24 W
2266 2223 PD
24 W
2281 2199 PD
24 W
2295 2175 PD
24 W
2310 2151 PD
24 W
2324 2127 PD
24 W
2339 2103 PD
24 W
2353 2079 PD
24 W
2368 2055 PD
24 W
2383 2031 PD
24 W
2397 2008 PD
24 W
2412 1984 PD
24 W
2426 1961 PD
24 W
2441 1938 PD
24 W
2455 1915 PD
24 W
2470 1892 PD
24 W
2484 1869 PD
24 W
2499 1847 PD
24 W
2513 1824 PD
24 W
2528 1802 PD
24 W
2542 1780 PD
24 W
2557 1758 PD
24 W
2571 1736 PD
24 W
2586 1715 PD
24 W
2600 1694 PD
24 W
2615 1672 PD
24 W
2629 1652 PD
24 W
2644 1631 PD
24 W
2658 1611 PD
24 W
2673 1590 PD
24 W
2687 1571 PD
24 W
2702 1551 PD
24 W
2716 1532 PD
24 W
2731 1512 PD
24 W
2745 1494 PD
24 W
2760 1475 PD
24 W
2774 1457 PD
24 W
2789 1439 PD
24 W
2803 1421 PD
24 W
2818 1403 PD
24 W
2832 1386 PD
24 W
2847 1369 PD
24 W
2861 1353 PD
24 W
2876 1337 PD
24 W
2890 1321 PD
24 W
2905 1305 PD
24 W
2919 1290 PD
24 W
2934 1275 PD
24 W
2948 1261 PD
24 W
2963 1246 PD
24 W
2977 1233 PD
24 W
2992 1219 PD
24 W
3006 1206 PD
24 W
3021 1193 PD
24 W
3035 1181 PD
24 W
3050 1169 PD
24 W
3064 1157 PD
24 W
3079 1146 PD
24 W
3093 1135 PD
24 W
3108 1124 PD
24 W
3123 1114 PD
24 W
3137 1104 PD
24 W
3152 1095 PD
24 W
3166 1086 PD
24 W
3181 1078 PD
24 W
3195 1069 PD
24 W
3210 1062 PD
24 W
3224 1054 PD
24 W
3239 1047 PD
24 W
3253 1041 PD
24 W
3268 1035 PD
24 W
3282 1029 PD
24 W
3297 1024 PD
24 W
3311 1019 PD
24 W
3326 1014 PD
24 W
3340 1010 PD
24 W
3355 1007 PD
24 W
3369 1004 PD
24 W
3384 1001 PD
24 W
3398 998 PD
24 W
3413 997 PD
24 W
3427 995 PD
24 W
3442 994 PD
24 W
3456 993 PD
24 W
3471 993 PD
24 W
3485 993 PD
24 W
3500 994 PD
24 W
3514 995 PD
24 W
3529 997 PD
24 W
3543 998 PD
24 W
3558 1001 PD
24 W
3572 1004 PD
24 W
3587 1007 PD
24 W
3601 1010 PD
24 W
3616 1014 PD
24 W
3630 1019 PD
24 W
3645 1024 PD
24 W
3659 1029 PD
24 W
3674 1035 PD
24 W
3688 1041 PD
24 W
3703 1047 PD
24 W
3717 1054 PD
24 W
3732 1062 PD
24 W
3746 1069 PD
24 W
3761 1078 PD
24 W
3775 1086 PD
24 W
3790 1095 PD
24 W
3804 1104 PD
24 W
3819 1114 PD
24 W
3833 1124 PD
24 W
3848 1135 PD
24 W
3863 1146 PD
24 W
3877 1157 PD
24 W
3892 1169 PD
24 W
3906 1181 PD
24 W
3921 1193 PD
24 W
3935 1206 PD
24 W
3950 1219 PD
24 W
3964 1233 PD
24 W
3979 1246 PD
24 W
3993 1261 PD
24 W
4008 1275 PD
24 W
4022 1290 PD
24 W
4037 1305 PD
24 W
4051 1321 PD
24 W
4066 1337 PD
24 W
4080 1353 PD
24 W
4095 1369 PD
24 W
4109 1386 PD
24 W
4124 1403 PD
24 W
4138 1421 PD
24 W
4153 1439 PD
24 W
4167 1457 PD
24 W
4182 1475 PD
24 W
4196 1494 PD
24 W
4211 1512 PD
24 W
4225 1532 PD
24 W
4240 1551 PD
24 W
4254 1571 PD
24 W
4269 1590 PD
24 W
4283 1611 PD
24 W
4298 1631 PD
24 W
4312 1652 PD
24 W
4327 1672 PD
24 W
4341 1694 PD
24 W
4356 1715 PD
24 W
4370 1736 PD
24 W
4385 1758 PD
24 W
4399 1780 PD
24 W
4414 1802 PD
24 W
4428 1824 PD
24 W
4443 1847 PD
24 W
4457 1869 PD
24 W
4472 1892 PD
24 W
4486 1915 PD
24 W
4501 1938 PD
24 W
4515 1961 PD
24 W
4530 1984 PD
24 W
4544 2008 PD
24 W
4559 2031 PD
24 W
4573 2055 PD
24 W
4588 2079 PD
24 W
4603 2103 PD
24 W
4617 2127 PD
24 W
4632 2151 PD
24 W
4646 2175 PD
24 W
4661 2199 PD
24 W
4675 2223 PD
24 W
4690 2248 PD
24 W
4704 2272 PD
24 W
4719 2296 PD
24 W
4733 2321 PD
24 W
4748 2345 PD
24 W
4762 2370 PD
24 W
4777 2394 PD
24 W
4791 2418 PD
24 W
4806 2443 PD
24 W
4820 2467 PD
24 W
4835 2492 PD
24 W
4849 2516 PD
24 W
4864 2540 PD
24 W
4878 2565 PD
24 W
4893 2589 PD
24 W
4907 2613 PD
24 W
4922 2637 PD
24 W
4936 2661 PD
24 W
4951 2685 PD
24 W
4965 2709 PD
24 W
4980 2733 PD
24 W
4994 2757 PD
24 W
5009 2780 PD
24 W
5023 2804 PD
24 W
5038 2827 PD
24 W
5052 2850 PD
24 W
5067 2873 PD
24 W
5081 2896 PD
24 W
5096 2919 PD
24 W
5110 2941 PD
24 W
5125 2964 PD
24 W
5139 2986 PD
24 W
5154 3008 PD
24 W
5168 3030 PD
24 W
5183 3052 PD
24 W
5197 3073 PD
24 W
5212 3094 PD
24 W
5226 3115 PD
24 W
5241 3136 PD
24 W
5255 3157 PD
24 W
5270 3177 PD
24 W
5284 3197 PD
24 W
5299 3217 PD
24 W
5313 3237 PD
24 W
5328 3256 PD
24 W
5343 3276 PD
24 W
5357 3294 PD
24 W
5372 3313 PD
24 W
5386 3331 PD
24 W
5401 3349 PD
24 W
5415 3367 PD
24 W
5430 3385 PD
24 W
5444 3402 PD
24 W
5459 3418 PD
24 W
5473 3435 PD
24 W
5488 3451 PD
24 W
5502 3467 PD
24 W
5517 3483 PD
24 W
5531 3498 PD
24 W
5546 3513 PD
24 W
5560 3527 PD
24 W
5575 3541 PD
24 W
5589 3555 PD
24 W
5604 3569 PD
24 W
5618 3582 PD
24 W
5633 3595 PD
24 W
5647 3607 PD
24 W
5662 3619 PD
24 W
5676 3631 PD
24 W
5691 3642 PD
24 W
5705 3653 PD
24 W
5720 3664 PD
24 W
5734 3674 PD
24 W
5749 3683 PD
24 W
5763 3693 PD
24 W
5778 3702 PD
24 W
5792 3710 PD
24 W
5807 3719 PD
24 W
5821 3726 PD
24 W
5836 3734 PD
24 W
5850 3741 PD
24 W
5865 3747 PD
24 W
5879 3753 PD
24 W
5894 3759 PD
24 W
5908 3764 PD
24 W
5923 3769 PD
24 W
5937 3774 PD
24 W
5952 3778 PD
24 W
5966 3781 PD
24 W
5981 3784 PD
24 W
5995 3787 PD
24 W
6010 3790 PD
24 W
6024 3791 PD
24 W
6039 3793 PD
24 W
6053 3794 PD
24 W
6068 3795 PD
24 W
6083 3795 PD
gs 874 377 5210 4103 rc
gr

24 W
/c10 { 1.000000 0.000000 0.000000 sr} bdef
c10
874 3795 PD
24 W
888 3794 PD
24 W
903 3793 PD
24 W
917 3792 PD
24 W
932 3790 PD
24 W
946 3789 PD
24 W
961 3786 PD
24 W
975 3784 PD
24 W
990 3781 PD
24 W
1004 3777 PD
24 W
1019 3774 PD
24 W
1033 3770 PD
24 W
1048 3765 PD
24 W
1062 3761 PD
24 W
1077 3756 PD
24 W
1091 3750 PD
24 W
1106 3745 PD
24 W
1120 3739 PD
24 W
1135 3732 PD
24 W
1149 3725 PD
24 W
1164 3718 PD
24 W
1178 3711 PD
24 W
1193 3703 PD
24 W
1207 3695 PD
24 W
1222 3687 PD
24 W
1236 3678 PD
24 W
1251 3669 PD
24 W
1265 3660 PD
24 W
1280 3651 PD
24 W
1294 3641 PD
24 W
1309 3630 PD
24 W
1323 3620 PD
24 W
1338 3609 PD
24 W
1352 3598 PD
24 W
1367 3587 PD
24 W
1381 3575 PD
24 W
1396 3563 PD
24 W
1410 3551 PD
24 W
1425 3538 PD
24 W
1439 3526 PD
24 W
1454 3513 PD
24 W
1468 3499 PD
24 W
1483 3486 PD
24 W
1497 3472 PD
24 W
1512 3458 PD
24 W
1526 3444 PD
24 W
1541 3429 PD
24 W
1555 3414 PD
24 W
1570 3399 PD
24 W
1584 3384 PD
24 W
1599 3368 PD
24 W
1613 3353 PD
24 W
1628 3337 PD
24 W
1643 3321 PD
24 W
1657 3304 PD
24 W
1672 3288 PD
24 W
1686 3271 PD
24 W
1701 3254 PD
24 W
1715 3237 PD
24 W
1730 3220 PD
24 W
1744 3202 PD
24 W
1759 3184 PD
24 W
1773 3167 PD
24 W
1788 3149 PD
24 W
1802 3130 PD
24 W
1817 3112 PD
24 W
1831 3094 PD
24 W
1846 3075 PD
24 W
1860 3057 PD
24 W
1875 3038 PD
24 W
1889 3019 PD
24 W
1904 3000 PD
24 W
1918 2981 PD
24 W
1933 2961 PD
24 W
1947 2942 PD
24 W
1962 2923 PD
24 W
1976 2903 PD
24 W
1991 2883 PD
24 W
2005 2864 PD
24 W
2020 2844 PD
24 W
2034 2824 PD
24 W
2049 2804 PD
24 W
2063 2784 PD
24 W
2078 2764 PD
24 W
2092 2744 PD
24 W
2107 2724 PD
24 W
2121 2704 PD
24 W
2136 2684 PD
24 W
2150 2664 PD
24 W
2165 2644 PD
24 W
2179 2624 PD
24 W
2194 2604 PD
24 W
2208 2584 PD
24 W
2223 2564 PD
24 W
2237 2544 PD
24 W
2252 2524 PD
24 W
2266 2504 PD
24 W
2281 2484 PD
24 W
2295 2464 PD
24 W
2310 2444 PD
24 W
2324 2425 PD
24 W
2339 2405 PD
24 W
2353 2385 PD
24 W
2368 2366 PD
24 W
2383 2346 PD
24 W
2397 2327 PD
24 W
2412 2308 PD
24 W
2426 2289 PD
24 W
2441 2270 PD
24 W
2455 2251 PD
24 W
2470 2232 PD
24 W
2484 2213 PD
24 W
2499 2195 PD
24 W
2513 2176 PD
24 W
2528 2158 PD
24 W
2542 2140 PD
24 W
2557 2122 PD
24 W
2571 2104 PD
24 W
2586 2086 PD
24 W
2600 2069 PD
24 W
2615 2052 PD
24 W
2629 2034 PD
24 W
2644 2018 PD
24 W
2658 2001 PD
24 W
2673 1984 PD
24 W
2687 1968 PD
24 W
2702 1952 PD
24 W
2716 1936 PD
24 W
2731 1920 PD
24 W
2745 1905 PD
24 W
2760 1889 PD
24 W
2774 1874 PD
24 W
2789 1859 PD
24 W
2803 1845 PD
24 W
2818 1831 PD
24 W
2832 1817 PD
24 W
2847 1803 PD
24 W
2861 1789 PD
24 W
2876 1776 PD
24 W
2890 1763 PD
24 W
2905 1750 PD
24 W
2919 1738 PD
24 W
2934 1725 PD
24 W
2948 1713 PD
24 W
2963 1702 PD
24 W
2977 1690 PD
24 W
2992 1679 PD
24 W
3006 1668 PD
24 W
3021 1658 PD
24 W
3035 1648 PD
24 W
3050 1638 PD
24 W
3064 1628 PD
24 W
3079 1619 PD
24 W
3093 1610 PD
24 W
3108 1601 PD
24 W
3123 1593 PD
24 W
3137 1585 PD
24 W
3152 1577 PD
24 W
3166 1570 PD
24 W
3181 1563 PD
24 W
3195 1556 PD
24 W
3210 1550 PD
24 W
3224 1544 PD
24 W
3239 1538 PD
24 W
3253 1533 PD
24 W
3268 1528 PD
24 W
3282 1523 PD
24 W
3297 1519 PD
24 W
3311 1515 PD
24 W
3326 1511 PD
24 W
3340 1508 PD
24 W
3355 1505 PD
24 W
3369 1502 PD
24 W
3384 1500 PD
24 W
3398 1498 PD
24 W
3413 1496 PD
24 W
3427 1495 PD
24 W
3442 1494 PD
24 W
3456 1494 PD
24 W
3471 1494 PD
24 W
3485 1494 PD
24 W
3500 1494 PD
24 W
3514 1495 PD
24 W
3529 1496 PD
24 W
3543 1498 PD
24 W
3558 1500 PD
24 W
3572 1502 PD
24 W
3587 1505 PD
24 W
3601 1508 PD
24 W
3616 1511 PD
24 W
3630 1515 PD
24 W
3645 1519 PD
24 W
3659 1523 PD
24 W
3674 1528 PD
24 W
3688 1533 PD
24 W
3703 1538 PD
24 W
3717 1544 PD
24 W
3732 1550 PD
24 W
3746 1556 PD
24 W
3761 1563 PD
24 W
3775 1570 PD
24 W
3790 1577 PD
24 W
3804 1585 PD
24 W
3819 1593 PD
24 W
3833 1601 PD
24 W
3848 1610 PD
24 W
3863 1619 PD
24 W
3877 1628 PD
24 W
3892 1638 PD
24 W
3906 1648 PD
24 W
3921 1658 PD
24 W
3935 1668 PD
24 W
3950 1679 PD
24 W
3964 1690 PD
24 W
3979 1702 PD
24 W
3993 1713 PD
24 W
4008 1725 PD
24 W
4022 1738 PD
24 W
4037 1750 PD
24 W
4051 1763 PD
24 W
4066 1776 PD
24 W
4080 1789 PD
24 W
4095 1803 PD
24 W
4109 1817 PD
24 W
4124 1831 PD
24 W
4138 1845 PD
24 W
4153 1859 PD
24 W
4167 1874 PD
24 W
4182 1889 PD
24 W
4196 1905 PD
24 W
4211 1920 PD
24 W
4225 1936 PD
24 W
4240 1952 PD
24 W
4254 1968 PD
24 W
4269 1984 PD
24 W
4283 2001 PD
24 W
4298 2018 PD
24 W
4312 2034 PD
24 W
4327 2052 PD
24 W
4341 2069 PD
24 W
4356 2086 PD
24 W
4370 2104 PD
24 W
4385 2122 PD
24 W
4399 2140 PD
24 W
4414 2158 PD
24 W
4428 2176 PD
24 W
4443 2195 PD
24 W
4457 2213 PD
24 W
4472 2232 PD
24 W
4486 2251 PD
24 W
4501 2270 PD
24 W
4515 2289 PD
24 W
4530 2308 PD
24 W
4544 2327 PD
24 W
4559 2346 PD
24 W
4573 2366 PD
24 W
4588 2385 PD
24 W
4603 2405 PD
24 W
4617 2425 PD
24 W
4632 2444 PD
24 W
4646 2464 PD
24 W
4661 2484 PD
24 W
4675 2504 PD
24 W
4690 2524 PD
24 W
4704 2544 PD
24 W
4719 2564 PD
24 W
4733 2584 PD
24 W
4748 2604 PD
24 W
4762 2624 PD
24 W
4777 2644 PD
24 W
4791 2664 PD
24 W
4806 2684 PD
24 W
4820 2704 PD
24 W
4835 2724 PD
24 W
4849 2744 PD
24 W
4864 2764 PD
24 W
4878 2784 PD
24 W
4893 2804 PD
24 W
4907 2824 PD
24 W
4922 2844 PD
24 W
4936 2864 PD
24 W
4951 2883 PD
24 W
4965 2903 PD
24 W
4980 2923 PD
24 W
4994 2942 PD
24 W
5009 2961 PD
24 W
5023 2981 PD
24 W
5038 3000 PD
24 W
5052 3019 PD
24 W
5067 3038 PD
24 W
5081 3057 PD
24 W
5096 3075 PD
24 W
5110 3094 PD
24 W
5125 3112 PD
24 W
5139 3130 PD
24 W
5154 3149 PD
24 W
5168 3167 PD
24 W
5183 3184 PD
24 W
5197 3202 PD
24 W
5212 3220 PD
24 W
5226 3237 PD
24 W
5241 3254 PD
24 W
5255 3271 PD
24 W
5270 3288 PD
24 W
5284 3304 PD
24 W
5299 3321 PD
24 W
5313 3337 PD
24 W
5328 3353 PD
24 W
5343 3368 PD
24 W
5357 3384 PD
24 W
5372 3399 PD
24 W
5386 3414 PD
24 W
5401 3429 PD
24 W
5415 3444 PD
24 W
5430 3458 PD
24 W
5444 3472 PD
24 W
5459 3486 PD
24 W
5473 3499 PD
24 W
5488 3513 PD
24 W
5502 3526 PD
24 W
5517 3538 PD
24 W
5531 3551 PD
24 W
5546 3563 PD
24 W
5560 3575 PD
24 W
5575 3587 PD
24 W
5589 3598 PD
24 W
5604 3609 PD
24 W
5618 3620 PD
24 W
5633 3630 PD
24 W
5647 3641 PD
24 W
5662 3651 PD
24 W
5676 3660 PD
24 W
5691 3669 PD
24 W
5705 3678 PD
24 W
5720 3687 PD
24 W
5734 3695 PD
24 W
5749 3703 PD
24 W
5763 3711 PD
24 W
5778 3718 PD
24 W
5792 3725 PD
24 W
5807 3732 PD
24 W
5821 3739 PD
24 W
5836 3745 PD
24 W
5850 3750 PD
24 W
5865 3756 PD
24 W
5879 3761 PD
24 W
5894 3765 PD
24 W
5908 3770 PD
24 W
5923 3774 PD
24 W
5937 3777 PD
24 W
5952 3781 PD
24 W
5966 3784 PD
24 W
5981 3786 PD
24 W
5995 3789 PD
24 W
6010 3790 PD
24 W
6024 3792 PD
24 W
6039 3793 PD
24 W
6053 3794 PD
24 W
6068 3795 PD
24 W
6083 3795 PD
gs 874 377 5210 4103 rc
gr

24 W
/c11 { 0.000000 1.000000 0.000000 sr} bdef
c11
874 3795 PD
24 W
888 3795 PD
24 W
903 3794 PD
24 W
917 3794 PD
24 W
932 3794 PD
24 W
946 3793 PD
24 W
961 3793 PD
24 W
975 3792 PD
24 W
990 3791 PD
24 W
1004 3790 PD
24 W
1019 3789 PD
24 W
1033 3788 PD
24 W
1048 3787 PD
24 W
1062 3786 PD
24 W
1077 3785 PD
24 W
1091 3783 PD
24 W
1106 3782 PD
24 W
1120 3780 PD
24 W
1135 3779 PD
24 W
1149 3777 PD
24 W
1164 3775 PD
24 W
1178 3773 PD
24 W
1193 3771 PD
24 W
1207 3769 PD
24 W
1222 3767 PD
24 W
1236 3765 PD
24 W
1251 3763 PD
24 W
1265 3760 PD
24 W
1280 3758 PD
24 W
1294 3755 PD
24 W
1309 3753 PD
24 W
1323 3750 PD
24 W
1338 3747 PD
24 W
1352 3744 PD
24 W
1367 3741 PD
24 W
1381 3738 PD
24 W
1396 3735 PD
24 W
1410 3732 PD
24 W
1425 3729 PD
24 W
1439 3726 PD
24 W
1454 3722 PD
24 W
1468 3719 PD
24 W
1483 3715 PD
24 W
1497 3712 PD
24 W
1512 3708 PD
24 W
1526 3704 PD
24 W
1541 3701 PD
24 W
1555 3697 PD
24 W
1570 3693 PD
24 W
1584 3689 PD
24 W
1599 3685 PD
24 W
1613 3681 PD
24 W
1628 3677 PD
24 W
1643 3673 PD
24 W
1657 3669 PD
24 W
1672 3664 PD
24 W
1686 3660 PD
24 W
1701 3656 PD
24 W
1715 3651 PD
24 W
1730 3647 PD
24 W
1744 3642 PD
24 W
1759 3638 PD
24 W
1773 3633 PD
24 W
1788 3629 PD
24 W
1802 3624 PD
24 W
1817 3619 PD
24 W
1831 3614 PD
24 W
1846 3610 PD
24 W
1860 3605 PD
24 W
1875 3600 PD
24 W
1889 3595 PD
24 W
1904 3590 PD
24 W
1918 3585 PD
24 W
1933 3580 PD
24 W
1947 3575 PD
24 W
1962 3570 PD
24 W
1976 3565 PD
24 W
1991 3560 PD
24 W
2005 3555 PD
24 W
2020 3550 PD
24 W
2034 3545 PD
24 W
2049 3540 PD
24 W
2063 3535 PD
24 W
2078 3530 PD
24 W
2092 3525 PD
24 W
2107 3519 PD
24 W
2121 3514 PD
24 W
2136 3509 PD
24 W
2150 3504 PD
24 W
2165 3499 PD
24 W
2179 3494 PD
24 W
2194 3488 PD
24 W
2208 3483 PD
24 W
2223 3478 PD
24 W
2237 3473 PD
24 W
2252 3468 PD
24 W
2266 3463 PD
24 W
2281 3458 PD
24 W
2295 3452 PD
24 W
2310 3447 PD
24 W
2324 3442 PD
24 W
2339 3437 PD
24 W
2353 3432 PD
24 W
2368 3427 PD
24 W
2383 3422 PD
24 W
2397 3417 PD
24 W
2412 3412 PD
24 W
2426 3407 PD
24 W
2441 3402 PD
24 W
2455 3398 PD
24 W
2470 3393 PD
24 W
2484 3388 PD
24 W
2499 3383 PD
24 W
2513 3378 PD
24 W
2528 3374 PD
24 W
2542 3369 PD
24 W
2557 3364 PD
24 W
2571 3360 PD
24 W
2586 3355 PD
24 W
2600 3351 PD
24 W
2615 3346 PD
24 W
2629 3342 PD
24 W
2644 3338 PD
24 W
2658 3333 PD
24 W
2673 3329 PD
24 W
2687 3325 PD
24 W
2702 3321 PD
24 W
2716 3317 PD
24 W
2731 3312 PD
24 W
2745 3309 PD
24 W
2760 3305 PD
24 W
2774 3301 PD
24 W
2789 3297 PD
24 W
2803 3293 PD
24 W
2818 3289 PD
24 W
2832 3286 PD
24 W
2847 3282 PD
24 W
2861 3279 PD
24 W
2876 3275 PD
24 W
2890 3272 PD
24 W
2905 3269 PD
24 W
2919 3266 PD
24 W
2934 3262 PD
24 W
2948 3259 PD
24 W
2963 3256 PD
24 W
2977 3253 PD
24 W
2992 3251 PD
24 W
3006 3248 PD
24 W
3021 3245 PD
24 W
3035 3242 PD
24 W
3050 3240 PD
24 W
3064 3237 PD
24 W
3079 3235 PD
24 W
3093 3233 PD
24 W
3108 3230 PD
24 W
3123 3228 PD
24 W
3137 3226 PD
24 W
3152 3224 PD
24 W
3166 3222 PD
24 W
3181 3221 PD
24 W
3195 3219 PD
24 W
3210 3217 PD
24 W
3224 3216 PD
24 W
3239 3214 PD
24 W
3253 3213 PD
24 W
3268 3212 PD
24 W
3282 3210 PD
24 W
3297 3209 PD
24 W
3311 3208 PD
24 W
3326 3207 PD
24 W
3340 3206 PD
24 W
3355 3206 PD
24 W
3369 3205 PD
24 W
3384 3204 PD
24 W
3398 3204 PD
24 W
3413 3203 PD
24 W
3427 3203 PD
24 W
3442 3203 PD
24 W
3456 3203 PD
24 W
3471 3203 PD
24 W
3485 3203 PD
24 W
3500 3203 PD
24 W
3514 3203 PD
24 W
3529 3203 PD
24 W
3543 3204 PD
24 W
3558 3204 PD
24 W
3572 3205 PD
24 W
3587 3206 PD
24 W
3601 3206 PD
24 W
3616 3207 PD
24 W
3630 3208 PD
24 W
3645 3209 PD
24 W
3659 3210 PD
24 W
3674 3212 PD
24 W
3688 3213 PD
24 W
3703 3214 PD
24 W
3717 3216 PD
24 W
3732 3217 PD
24 W
3746 3219 PD
24 W
3761 3221 PD
24 W
3775 3222 PD
24 W
3790 3224 PD
24 W
3804 3226 PD
24 W
3819 3228 PD
24 W
3833 3230 PD
24 W
3848 3233 PD
24 W
3863 3235 PD
24 W
3877 3237 PD
24 W
3892 3240 PD
24 W
3906 3242 PD
24 W
3921 3245 PD
24 W
3935 3248 PD
24 W
3950 3251 PD
24 W
3964 3253 PD
24 W
3979 3256 PD
24 W
3993 3259 PD
24 W
4008 3262 PD
24 W
4022 3266 PD
24 W
4037 3269 PD
24 W
4051 3272 PD
24 W
4066 3275 PD
24 W
4080 3279 PD
24 W
4095 3282 PD
24 W
4109 3286 PD
24 W
4124 3289 PD
24 W
4138 3293 PD
24 W
4153 3297 PD
24 W
4167 3301 PD
24 W
4182 3305 PD
24 W
4196 3309 PD
24 W
4211 3312 PD
24 W
4225 3317 PD
24 W
4240 3321 PD
24 W
4254 3325 PD
24 W
4269 3329 PD
24 W
4283 3333 PD
24 W
4298 3338 PD
24 W
4312 3342 PD
24 W
4327 3346 PD
24 W
4341 3351 PD
24 W
4356 3355 PD
24 W
4370 3360 PD
24 W
4385 3364 PD
24 W
4399 3369 PD
24 W
4414 3374 PD
24 W
4428 3378 PD
24 W
4443 3383 PD
24 W
4457 3388 PD
24 W
4472 3393 PD
24 W
4486 3398 PD
24 W
4501 3402 PD
24 W
4515 3407 PD
24 W
4530 3412 PD
24 W
4544 3417 PD
24 W
4559 3422 PD
24 W
4573 3427 PD
24 W
4588 3432 PD
24 W
4603 3437 PD
24 W
4617 3442 PD
24 W
4632 3447 PD
24 W
4646 3452 PD
24 W
4661 3458 PD
24 W
4675 3463 PD
24 W
4690 3468 PD
24 W
4704 3473 PD
24 W
4719 3478 PD
24 W
4733 3483 PD
24 W
4748 3488 PD
24 W
4762 3494 PD
24 W
4777 3499 PD
24 W
4791 3504 PD
24 W
4806 3509 PD
24 W
4820 3514 PD
24 W
4835 3519 PD
24 W
4849 3525 PD
24 W
4864 3530 PD
24 W
4878 3535 PD
24 W
4893 3540 PD
24 W
4907 3545 PD
24 W
4922 3550 PD
24 W
4936 3555 PD
24 W
4951 3560 PD
24 W
4965 3565 PD
24 W
4980 3570 PD
24 W
4994 3575 PD
24 W
5009 3580 PD
24 W
5023 3585 PD
24 W
5038 3590 PD
24 W
5052 3595 PD
24 W
5067 3600 PD
24 W
5081 3605 PD
24 W
5096 3610 PD
24 W
5110 3614 PD
24 W
5125 3619 PD
24 W
5139 3624 PD
24 W
5154 3629 PD
24 W
5168 3633 PD
24 W
5183 3638 PD
24 W
5197 3642 PD
24 W
5212 3647 PD
24 W
5226 3651 PD
24 W
5241 3656 PD
24 W
5255 3660 PD
24 W
5270 3664 PD
24 W
5284 3669 PD
24 W
5299 3673 PD
24 W
5313 3677 PD
24 W
5328 3681 PD
24 W
5343 3685 PD
24 W
5357 3689 PD
24 W
5372 3693 PD
24 W
5386 3697 PD
24 W
5401 3701 PD
24 W
5415 3704 PD
24 W
5430 3708 PD
24 W
5444 3712 PD
24 W
5459 3715 PD
24 W
5473 3719 PD
24 W
5488 3722 PD
24 W
5502 3726 PD
24 W
5517 3729 PD
24 W
5531 3732 PD
24 W
5546 3735 PD
24 W
5560 3738 PD
24 W
5575 3741 PD
24 W
5589 3744 PD
24 W
5604 3747 PD
24 W
5618 3750 PD
24 W
5633 3753 PD
24 W
5647 3755 PD
24 W
5662 3758 PD
24 W
5676 3760 PD
24 W
5691 3763 PD
24 W
5705 3765 PD
24 W
5720 3767 PD
24 W
5734 3769 PD
24 W
5749 3771 PD
24 W
5763 3773 PD
24 W
5778 3775 PD
24 W
5792 3777 PD
24 W
5807 3779 PD
24 W
5821 3780 PD
24 W
5836 3782 PD
24 W
5850 3783 PD
24 W
5865 3785 PD
24 W
5879 3786 PD
24 W
5894 3787 PD
24 W
5908 3788 PD
24 W
5923 3789 PD
24 W
5937 3790 PD
24 W
5952 3791 PD
24 W
5966 3792 PD
24 W
5981 3793 PD
24 W
5995 3793 PD
24 W
6010 3794 PD
24 W
6024 3794 PD
24 W
6039 3794 PD
24 W
6053 3795 PD
24 W
6068 3795 PD
24 W
6083 3795 PD
gs 874 377 5210 4103 rc
gr

0 sg
2337 4974 mt 
(Degrees of Rotation) s
 457 4534 mt  -90 rotate
(Height of Distal Bottom of Metatarsal) s
90 rotate
%%IncludeResource: font Helvetica
/Helvetica /ISOLatin1Encoding 120 FMSR

 857 4522 mt 
( ) s
6067  419 mt 
( ) s
1 sg
0 1322 1423 0 0 -1322 4601 1759 4 MP
PP
-1423 0 0 1322 1423 0 0 -1322 4601 1759 5 MP stroke
4 w
DO
SO
6 w
0 sg
4601 1759 mt 6024 1759 L
4601  437 mt 6024  437 L
4601 1759 mt 4601  437 L
6024 1759 mt 6024  437 L
4601 1759 mt 6024 1759 L
4601 1759 mt 4601  437 L
4601 1759 mt 6024 1759 L
4601  437 mt 6024  437 L
4601 1759 mt 4601  437 L
6024 1759 mt 6024  437 L
%%IncludeResource: font Symbol
/Symbol /ISOLatin1Encoding 240 FMSR

5032  704 mt 
(F) s
%%IncludeResource: font Helvetica-Bold
/Helvetica-Bold /ISOLatin1Encoding 240 FMSR

5215  704 mt 
( = ) s
%%IncludeResource: font Symbol
/Symbol /ISOLatin1Encoding 240 FMSR

5488  704 mt 
(p) s
%%IncludeResource: font Helvetica-Bold
/Helvetica-Bold /ISOLatin1Encoding 240 FMSR

5619  704 mt 
( / 6) s
gs 4601 437 1424 1323 rc
gs 4759 544 147 147 rc
24 W
c8
4832 617 PD
gr

c8
gr

c8
0 sg
%%IncludeResource: font Symbol
/Symbol /ISOLatin1Encoding 240 FMSR

5032 1024 mt 
(F) s
%%IncludeResource: font Helvetica-Bold
/Helvetica-Bold /ISOLatin1Encoding 240 FMSR

5215 1024 mt 
( = ) s
%%IncludeResource: font Symbol
/Symbol /ISOLatin1Encoding 240 FMSR

5488 1024 mt 
(p) s
%%IncludeResource: font Helvetica-Bold
/Helvetica-Bold /ISOLatin1Encoding 240 FMSR

5619 1024 mt 
( / 4) s
gs 4601 437 1424 1323 rc
gs 4759 864 147 147 rc
24 W
c9
4832 937 PD
gr

c9
gr

c9
0 sg
%%IncludeResource: font Symbol
/Symbol /ISOLatin1Encoding 240 FMSR

5032 1345 mt 
(F) s
%%IncludeResource: font Helvetica-Bold
/Helvetica-Bold /ISOLatin1Encoding 240 FMSR

5215 1345 mt 
( = ) s
%%IncludeResource: font Symbol
/Symbol /ISOLatin1Encoding 240 FMSR

5488 1345 mt 
(p) s
%%IncludeResource: font Helvetica-Bold
/Helvetica-Bold /ISOLatin1Encoding 240 FMSR

5619 1345 mt 
( / 3) s
gs 4601 437 1424 1323 rc
gs 4759 1185 147 147 rc
24 W
c10
4832 1258 PD
gr

c10
gr

c10
0 sg
%%IncludeResource: font Symbol
/Symbol /ISOLatin1Encoding 240 FMSR

5032 1665 mt 
(F) s
%%IncludeResource: font Helvetica-Bold
/Helvetica-Bold /ISOLatin1Encoding 240 FMSR

5215 1665 mt 
( = ) s
%%IncludeResource: font Symbol
/Symbol /ISOLatin1Encoding 240 FMSR

5488 1665 mt 
(p) s
%%IncludeResource: font Helvetica-Bold
/Helvetica-Bold /ISOLatin1Encoding 240 FMSR

5619 1665 mt 
( / 2) s
gs 4601 437 1424 1323 rc
gs 4759 1505 147 147 rc
24 W
c11
4832 1578 PD
gr

c11
gr

c11

end %%Color Dict

eplot
%%EndObject

epage
end

showpage

%%Trailer
%%EOF
