%!PS-Adobe-3.0 EPSF-3.0
%%Creator: MATLAB, The MathWorks, Inc. Version 7.12.0.635 (R2011a). Operating System: Darwin 10.8.0 Darwin Kernel Version 10.8.0: Tue Jun  7 16:33:36 PDT 2011; root:xnu-1504.15.3~1/RELEASE_I386 i386.
%%Title: /Users/adamhammouda/Dropbox/Common/ResearchInterests/VinayBunion/FinalSimulationCode/docs/figures/pronation_results.eps
%%CreationDate: 02/18/2014  09:47:24
%%DocumentNeededFonts: Helvetica-Bold
%%+ Helvetica
%%DocumentProcessColors: Cyan Magenta Yellow Black
%%LanguageLevel: 2
%%Pages: 1
%%BoundingBox:    25   186   585   606
%%EndComments

%%BeginProlog
% MathWorks dictionary
/MathWorks 160 dict begin
% definition operators
/bdef {bind def} bind def
/ldef {load def} bind def
/xdef {exch def} bdef
/xstore {exch store} bdef
% operator abbreviations
/c  /clip ldef
/cc /concat ldef
/cp /closepath ldef
/gr /grestore ldef
/gs /gsave ldef
/mt /moveto ldef
/np /newpath ldef
/cm /currentmatrix ldef
/sm /setmatrix ldef
/rm /rmoveto ldef
/rl /rlineto ldef
/s {show newpath} bdef
/sc {setcmykcolor} bdef
/sr /setrgbcolor ldef
/sg /setgray ldef
/w /setlinewidth ldef
/j /setlinejoin ldef
/cap /setlinecap ldef
/rc {rectclip} bdef
/rf {rectfill} bdef
% page state control
/pgsv () def
/bpage {/pgsv save def} bdef
/epage {pgsv restore} bdef
/bplot /gsave ldef
/eplot {stroke grestore} bdef
% orientation switch
/portraitMode 0 def /landscapeMode 1 def /rotateMode 2 def
% coordinate system mappings
/dpi2point 0 def
% font control
/FontSize 0 def
/FMS {/FontSize xstore findfont [FontSize 0 0 FontSize neg 0 0]
  makefont setfont} bdef
/reencode {exch dup where {pop load} {pop StandardEncoding} ifelse
  exch dup 3 1 roll findfont dup length dict begin
  { 1 index /FID ne {def}{pop pop} ifelse } forall
  /Encoding exch def currentdict end definefont pop} bdef
/isroman {findfont /CharStrings get /Agrave known} bdef
/FMSR {3 1 roll 1 index dup isroman {reencode} {pop pop} ifelse
  exch FMS} bdef
/csm {1 dpi2point div -1 dpi2point div scale neg translate
 dup landscapeMode eq {pop -90 rotate}
  {rotateMode eq {90 rotate} if} ifelse} bdef
% line types: solid, dotted, dashed, dotdash
/SO { [] 0 setdash } bdef
/DO { [.5 dpi2point mul 4 dpi2point mul] 0 setdash } bdef
/DA { [6 dpi2point mul] 0 setdash } bdef
/DD { [.5 dpi2point mul 4 dpi2point mul 6 dpi2point mul 4
  dpi2point mul] 0 setdash } bdef
% macros for lines and objects
/L {lineto stroke} bdef
/MP {3 1 roll moveto 1 sub {rlineto} repeat} bdef
/AP {{rlineto} repeat} bdef
/PDlw -1 def
/W {/PDlw currentlinewidth def setlinewidth} def
/PP {closepath eofill} bdef
/DP {closepath stroke} bdef
/MR {4 -2 roll moveto dup  0 exch rlineto exch 0 rlineto
  neg 0 exch rlineto closepath} bdef
/FR {MR stroke} bdef
/PR {MR fill} bdef
/L1i {{currentfile picstr readhexstring pop} image} bdef
/tMatrix matrix def
/MakeOval {newpath tMatrix currentmatrix pop translate scale
0 0 1 0 360 arc tMatrix setmatrix} bdef
/FO {MakeOval stroke} bdef
/PO {MakeOval fill} bdef
/PD {currentlinewidth 2 div 0 360 arc fill
   PDlw -1 eq not {PDlw w /PDlw -1 def} if} def
/FA {newpath tMatrix currentmatrix pop translate scale
  0 0 1 5 -2 roll arc tMatrix setmatrix stroke} bdef
/PA {newpath tMatrix currentmatrix pop	translate 0 0 moveto scale
  0 0 1 5 -2 roll arc closepath tMatrix setmatrix fill} bdef
/FAn {newpath tMatrix currentmatrix pop translate scale
  0 0 1 5 -2 roll arcn tMatrix setmatrix stroke} bdef
/PAn {newpath tMatrix currentmatrix pop translate 0 0 moveto scale
  0 0 1 5 -2 roll arcn closepath tMatrix setmatrix fill} bdef
/vradius 0 def /hradius 0 def /lry 0 def
/lrx 0 def /uly 0 def /ulx 0 def /rad 0 def
/MRR {/vradius xdef /hradius xdef /lry xdef /lrx xdef /uly xdef
  /ulx xdef newpath tMatrix currentmatrix pop ulx hradius add uly
  vradius add translate hradius vradius scale 0 0 1 180 270 arc 
  tMatrix setmatrix lrx hradius sub uly vradius add translate
  hradius vradius scale 0 0 1 270 360 arc tMatrix setmatrix
  lrx hradius sub lry vradius sub translate hradius vradius scale
  0 0 1 0 90 arc tMatrix setmatrix ulx hradius add lry vradius sub
  translate hradius vradius scale 0 0 1 90 180 arc tMatrix setmatrix
  closepath} bdef
/FRR {MRR stroke } bdef
/PRR {MRR fill } bdef
/MlrRR {/lry xdef /lrx xdef /uly xdef /ulx xdef /rad lry uly sub 2 div def
  newpath tMatrix currentmatrix pop ulx rad add uly rad add translate
  rad rad scale 0 0 1 90 270 arc tMatrix setmatrix lrx rad sub lry rad
  sub translate rad rad scale 0 0 1 270 90 arc tMatrix setmatrix
  closepath} bdef
/FlrRR {MlrRR stroke } bdef
/PlrRR {MlrRR fill } bdef
/MtbRR {/lry xdef /lrx xdef /uly xdef /ulx xdef /rad lrx ulx sub 2 div def
  newpath tMatrix currentmatrix pop ulx rad add uly rad add translate
  rad rad scale 0 0 1 180 360 arc tMatrix setmatrix lrx rad sub lry rad
  sub translate rad rad scale 0 0 1 0 180 arc tMatrix setmatrix
  closepath} bdef
/FtbRR {MtbRR stroke } bdef
/PtbRR {MtbRR fill } bdef
/stri 6 array def /dtri 6 array def
/smat 6 array def /dmat 6 array def
/tmat1 6 array def /tmat2 6 array def /dif 3 array def
/asub {/ind2 exch def /ind1 exch def dup dup
  ind1 get exch ind2 get sub exch } bdef
/tri_to_matrix {
  2 0 asub 3 1 asub 4 0 asub 5 1 asub
  dup 0 get exch 1 get 7 -1 roll astore } bdef
/compute_transform {
  dmat dtri tri_to_matrix tmat1 invertmatrix 
  smat stri tri_to_matrix tmat2 concatmatrix } bdef
/ds {stri astore pop} bdef
/dt {dtri astore pop} bdef
/db {2 copy /cols xdef /rows xdef mul dup 3 mul string
  currentfile 
  3 index 0 eq {/ASCIIHexDecode filter}
  {/ASCII85Decode filter 3 index 2 eq {/RunLengthDecode filter} if }
  ifelse exch readstring pop
  dup 0 3 index getinterval /rbmap xdef
  dup 2 index dup getinterval /gbmap xdef
  1 index dup 2 mul exch getinterval /bbmap xdef pop pop}bdef
/it {gs np dtri aload pop moveto lineto lineto cp c
  cols rows 8 compute_transform 
  rbmap gbmap bbmap true 3 colorimage gr}bdef
/il {newpath moveto lineto stroke}bdef
currentdict end def
%%EndProlog

%%BeginSetup
MathWorks begin

0 cap

end
%%EndSetup

%%Page: 1 1
%%BeginPageSetup
%%PageBoundingBox:    25   186   585   606
MathWorks begin
bpage
%%EndPageSetup

%%BeginObject: obj1
bplot

/dpi2point 12 def
portraitMode 0300 7272 csm

    0     0  6721  5033 rc
87 dict begin %Colortable dictionary
/c0 { 0.000000 0.000000 0.000000 sr} bdef
/c1 { 1.000000 1.000000 1.000000 sr} bdef
/c2 { 0.900000 0.000000 0.000000 sr} bdef
/c3 { 0.000000 0.820000 0.000000 sr} bdef
/c4 { 0.000000 0.000000 0.800000 sr} bdef
/c5 { 0.910000 0.820000 0.320000 sr} bdef
/c6 { 1.000000 0.260000 0.820000 sr} bdef
/c7 { 0.000000 0.820000 0.820000 sr} bdef
c0
1 j
1 sg
   0    0 6722 5034 rf
6 w
0 4102 5209 0 0 -4102 874 4479 4 MP
PP
-5209 0 0 4102 5209 0 0 -4102 874 4479 5 MP stroke
4 w
DO
SO
6 w
0 sg
 874 4479 mt 6083 4479 L
 874 4479 mt  874  377 L
1584 4479 mt 1584 4426 L
%%IncludeResource: font Helvetica-Bold
/Helvetica-Bold /ISOLatin1Encoding 240 FMSR

1451 4743 mt 
(50) s
2310 4479 mt 2310 4426 L
2110 4743 mt 
(100) s
3035 4479 mt 3035 4426 L
2835 4743 mt 
(150) s
3761 4479 mt 3761 4426 L
3561 4743 mt 
(200) s
4486 4479 mt 4486 4426 L
4286 4743 mt 
(250) s
5212 4479 mt 5212 4426 L
5012 4743 mt 
(300) s
5937 4479 mt 5937 4426 L
5737 4743 mt 
(350) s
 874 4479 mt  926 4479 L
 706 4571 mt 
(0) s
 874 3453 mt  926 3453 L
 573 3545 mt 
(50) s
 874 2428 mt  926 2428 L
 439 2520 mt 
(100) s
 874 1402 mt  926 1402 L
 439 1494 mt 
(150) s
 874  377 mt  926  377 L
 439  469 mt 
(200) s
gs 874 377 5210 4103 rc
96 w
/c8 { 0.000000 1.000000 0.000000 sr} bdef
c8
15 18 15 18 14 18 15 18 14 17 15 18 14 18 15 18 
14 18 15 18 14 17 15 18 14 18 15 18 14 18 15 19 
14 18 15 18 14 18 15 18 14 19 15 18 14 18 15 19 
14 19 15 18 14 19 15 19 14 18 15 19 14 19 15 19 
14 20 15 19 14 19 15 19 14 20 15 20 14 19 15 20 
14 20 15 20 14 20 15 20 14 20 15 21 14 20 15 21 
14 20 15 21 14 21 15 21 15 21 14 21 15 21 14 22 
15 21 14 22 15 22 14 21 15 22 14 22 15 22 14 23 
15 22 14 22 15 23 14 22 15 23 14 23 15 23 14 23 
15 23 14 23 15 23 14 23 15 23 14 24 15 23 14 23 
15 24 14 23 15 24 14 23 15 24 14 24 15 23 14 24 
15 24 14 23 15 24 14 24 15 23 14 24 15 24 14 23 
15 24 14 23 15 24 14 23 15 24 14 23 15 24 15 23 
14 23 15 23 14 23 15 23 14 23 15 23 14 23 15 22 
14 23 15 22 14 23 15 22 14 22 15 22 14 22 15 22 
14 22 15 22 14 22 15 21 14 21 15 22 14 21 15 21 
14 21 15 21 14 21 15 20 14 21 15 20 14 21 15 20 
14 20 15 20 14 20 15 20 14 20 15 19 14 20 15 19 
14 20 15 19 14 19 15 19 14 19 15 19 14 19 15 19 
14 19 15 19 15 18 14 19 15 18 14 19 15 18 14 18 
15 19 14 18 15 18 14 18 15 18 14 18 15 18 14 18 
15 18 14 18 15 18 14 18 15 18 14 18 15 17 14 18 
15 18 14 18 15 18 14 17 15 -17 14 -18 15 -18 14 -18 
15 -18 14 -17 15 -18 14 -18 15 -18 14 -18 15 -18 14 -18 
15 -18 14 -18 15 -18 14 -18 15 -18 14 -18 15 -18 14 -19 
15 -18 14 -18 15 -19 14 -18 15 -19 15 -18 14 -19 15 -19 
14 -19 15 -19 14 -19 15 -19 14 -19 15 -19 14 -19 15 -20 
14 -19 15 -20 14 -19 15 -20 14 -20 15 -20 14 -20 15 -20 
14 -20 15 -21 14 -20 15 -21 14 -20 15 -21 14 -21 15 -21 
14 -21 15 -21 14 -22 15 -21 14 -21 15 -22 14 -22 15 -22 
14 -22 15 -22 14 -22 15 -22 14 -22 15 -23 14 -22 15 -23 
14 -22 15 -23 14 -23 15 -23 14 -23 15 -23 14 -23 15 -23 
15 -23 14 -24 15 -23 14 -24 15 -23 14 -24 15 -23 14 -24 
15 -23 14 -24 15 -24 14 -23 15 -24 14 -24 15 -23 14 -24 
15 -24 14 -23 15 -24 14 -24 15 -23 14 -24 15 -23 14 -24 
15 -23 14 -23 15 -24 14 -23 15 -23 14 -23 15 -23 14 -23 
15 -23 14 -23 15 -23 14 -23 15 -22 14 -23 15 -22 14 -22 
15 -23 14 -22 15 -22 1744 3302 300 MP stroke
14 -22 15 -21 14 -22 15 -22 14 -21 15 -22 14 -21 15 -21 
15 -21 14 -21 15 -21 14 -21 15 -20 14 -21 15 -20 14 -21 
15 -20 14 -20 15 -20 14 -20 15 -20 14 -20 15 -19 14 -20 
15 -20 14 -19 15 -19 14 -19 15 -20 14 -19 15 -19 14 -19 
15 -18 14 -19 15 -19 14 -18 15 -19 14 -19 15 -18 14 -18 
15 -19 14 -18 15 -18 14 -18 15 -18 14 -19 15 -18 14 -18 
15 -18 14 -18 15 -17 14 -18 15 -18 14 -18 15 -18 14 -18 
15 -17 14 -18 15 -18 14 -18 874 4461 61 MP stroke
gr

96 w
c8
 849 4436 mt  899 4486 L
 899 4436 mt  849 4486 L
 863 4418 mt  913 4468 L
 913 4418 mt  863 4468 L
 878 4400 mt  928 4450 L
 928 4400 mt  878 4450 L
 892 4382 mt  942 4432 L
 942 4382 mt  892 4432 L
 907 4365 mt  957 4415 L
 957 4365 mt  907 4415 L
 921 4347 mt  971 4397 L
 971 4347 mt  921 4397 L
 936 4329 mt  986 4379 L
 986 4329 mt  936 4379 L
 950 4311 mt 1000 4361 L
1000 4311 mt  950 4361 L
 965 4293 mt 1015 4343 L
1015 4293 mt  965 4343 L
 979 4275 mt 1029 4325 L
1029 4275 mt  979 4325 L
 994 4258 mt 1044 4308 L
1044 4258 mt  994 4308 L
1008 4240 mt 1058 4290 L
1058 4240 mt 1008 4290 L
1023 4222 mt 1073 4272 L
1073 4222 mt 1023 4272 L
1037 4204 mt 1087 4254 L
1087 4204 mt 1037 4254 L
1052 4186 mt 1102 4236 L
1102 4186 mt 1052 4236 L
1066 4167 mt 1116 4217 L
1116 4167 mt 1066 4217 L
1081 4149 mt 1131 4199 L
1131 4149 mt 1081 4199 L
1095 4131 mt 1145 4181 L
1145 4131 mt 1095 4181 L
1110 4113 mt 1160 4163 L
1160 4113 mt 1110 4163 L
1124 4095 mt 1174 4145 L
1174 4095 mt 1124 4145 L
1139 4076 mt 1189 4126 L
1189 4076 mt 1139 4126 L
1153 4058 mt 1203 4108 L
1203 4058 mt 1153 4108 L
1168 4040 mt 1218 4090 L
1218 4040 mt 1168 4090 L
1182 4021 mt 1232 4071 L
1232 4021 mt 1182 4071 L
1197 4002 mt 1247 4052 L
1247 4002 mt 1197 4052 L
1211 3984 mt 1261 4034 L
1261 3984 mt 1211 4034 L
1226 3965 mt 1276 4015 L
1276 3965 mt 1226 4015 L
1240 3946 mt 1290 3996 L
1290 3946 mt 1240 3996 L
1255 3928 mt 1305 3978 L
1305 3928 mt 1255 3978 L
1269 3909 mt 1319 3959 L
1319 3909 mt 1269 3959 L
1284 3890 mt 1334 3940 L
1334 3890 mt 1284 3940 L
1298 3871 mt 1348 3921 L
1348 3871 mt 1298 3921 L
1313 3851 mt 1363 3901 L
1363 3851 mt 1313 3901 L
1327 3832 mt 1377 3882 L
1377 3832 mt 1327 3882 L
1342 3813 mt 1392 3863 L
1392 3813 mt 1342 3863 L
1356 3794 mt 1406 3844 L
1406 3794 mt 1356 3844 L
1371 3774 mt 1421 3824 L
1421 3774 mt 1371 3824 L
1385 3754 mt 1435 3804 L
1435 3754 mt 1385 3804 L
1400 3735 mt 1450 3785 L
1450 3735 mt 1400 3785 L
1414 3715 mt 1464 3765 L
1464 3715 mt 1414 3765 L
1429 3695 mt 1479 3745 L
1479 3695 mt 1429 3745 L
1443 3675 mt 1493 3725 L
1493 3675 mt 1443 3725 L
1458 3655 mt 1508 3705 L
1508 3655 mt 1458 3705 L
1472 3635 mt 1522 3685 L
1522 3635 mt 1472 3685 L
1487 3615 mt 1537 3665 L
1537 3615 mt 1487 3665 L
1501 3594 mt 1551 3644 L
1551 3594 mt 1501 3644 L
1516 3574 mt 1566 3624 L
1566 3574 mt 1516 3624 L
1530 3553 mt 1580 3603 L
1580 3553 mt 1530 3603 L
1545 3533 mt 1595 3583 L
1595 3533 mt 1545 3583 L
1559 3512 mt 1609 3562 L
1609 3512 mt 1559 3562 L
1574 3491 mt 1624 3541 L
1624 3491 mt 1574 3541 L
1588 3470 mt 1638 3520 L
1638 3470 mt 1588 3520 L
1603 3449 mt 1653 3499 L
1653 3449 mt 1603 3499 L
1618 3428 mt 1668 3478 L
1668 3428 mt 1618 3478 L
1632 3407 mt 1682 3457 L
1682 3407 mt 1632 3457 L
1647 3385 mt 1697 3435 L
1697 3385 mt 1647 3435 L
1661 3364 mt 1711 3414 L
1711 3364 mt 1661 3414 L
1676 3342 mt 1726 3392 L
1726 3342 mt 1676 3392 L
1690 3320 mt 1740 3370 L
1740 3320 mt 1690 3370 L
1705 3299 mt 1755 3349 L
1755 3299 mt 1705 3349 L
1719 3277 mt 1769 3327 L
1769 3277 mt 1719 3327 L
1734 3255 mt 1784 3305 L
1784 3255 mt 1734 3305 L
1748 3233 mt 1798 3283 L
1798 3233 mt 1748 3283 L
1763 3210 mt 1813 3260 L
1813 3210 mt 1763 3260 L
1777 3188 mt 1827 3238 L
1827 3188 mt 1777 3238 L
1792 3166 mt 1842 3216 L
1842 3166 mt 1792 3216 L
1806 3143 mt 1856 3193 L
1856 3143 mt 1806 3193 L
1821 3121 mt 1871 3171 L
1871 3121 mt 1821 3171 L
1835 3098 mt 1885 3148 L
1885 3098 mt 1835 3148 L
1850 3075 mt 1900 3125 L
1900 3075 mt 1850 3125 L
1864 3052 mt 1914 3102 L
1914 3052 mt 1864 3102 L
1879 3029 mt 1929 3079 L
1929 3029 mt 1879 3079 L
1893 3006 mt 1943 3056 L
1943 3006 mt 1893 3056 L
1908 2983 mt 1958 3033 L
1958 2983 mt 1908 3033 L
1922 2960 mt 1972 3010 L
1972 2960 mt 1922 3010 L
1937 2937 mt 1987 2987 L
1987 2937 mt 1937 2987 L
1951 2914 mt 2001 2964 L
2001 2914 mt 1951 2964 L
1966 2890 mt 2016 2940 L
2016 2890 mt 1966 2940 L
1980 2867 mt 2030 2917 L
2030 2867 mt 1980 2917 L
1995 2844 mt 2045 2894 L
2045 2844 mt 1995 2894 L
2009 2820 mt 2059 2870 L
2059 2820 mt 2009 2870 L
2024 2797 mt 2074 2847 L
2074 2797 mt 2024 2847 L
2038 2773 mt 2088 2823 L
2088 2773 mt 2038 2823 L
2053 2750 mt 2103 2800 L
2103 2750 mt 2053 2800 L
2067 2726 mt 2117 2776 L
2117 2726 mt 2067 2776 L
2082 2702 mt 2132 2752 L
2132 2702 mt 2082 2752 L
2096 2679 mt 2146 2729 L
2146 2679 mt 2096 2729 L
2111 2655 mt 2161 2705 L
2161 2655 mt 2111 2705 L
2125 2631 mt 2175 2681 L
2175 2631 mt 2125 2681 L
2140 2608 mt 2190 2658 L
2190 2608 mt 2140 2658 L
2154 2584 mt 2204 2634 L
2204 2584 mt 2154 2634 L
2169 2560 mt 2219 2610 L
2219 2560 mt 2169 2610 L
2183 2537 mt 2233 2587 L
2233 2537 mt 2183 2587 L
2198 2513 mt 2248 2563 L
2248 2513 mt 2198 2563 L
2212 2489 mt 2262 2539 L
2262 2489 mt 2212 2539 L
2227 2466 mt 2277 2516 L
2277 2466 mt 2227 2516 L
2241 2442 mt 2291 2492 L
2291 2442 mt 2241 2492 L
2256 2419 mt 2306 2469 L
2306 2419 mt 2256 2469 L
2270 2395 mt 2320 2445 L
2320 2395 mt 2270 2445 L
2285 2372 mt 2335 2422 L
2335 2372 mt 2285 2422 L
2299 2348 mt 2349 2398 L
2349 2348 mt 2299 2398 L
2314 2325 mt 2364 2375 L
2364 2325 mt 2314 2375 L
2328 2301 mt 2378 2351 L
2378 2301 mt 2328 2351 L
2343 2278 mt 2393 2328 L
2393 2278 mt 2343 2328 L
2358 2255 mt 2408 2305 L
2408 2255 mt 2358 2305 L
2372 2232 mt 2422 2282 L
2422 2232 mt 2372 2282 L
2387 2209 mt 2437 2259 L
2437 2209 mt 2387 2259 L
2401 2186 mt 2451 2236 L
2451 2186 mt 2401 2236 L
2416 2163 mt 2466 2213 L
2466 2163 mt 2416 2213 L
2430 2140 mt 2480 2190 L
2480 2140 mt 2430 2190 L
2445 2117 mt 2495 2167 L
2495 2117 mt 2445 2167 L
2459 2095 mt 2509 2145 L
2509 2095 mt 2459 2145 L
2474 2072 mt 2524 2122 L
2524 2072 mt 2474 2122 L
2488 2050 mt 2538 2100 L
2538 2050 mt 2488 2100 L
2503 2027 mt 2553 2077 L
2553 2027 mt 2503 2077 L
2517 2005 mt 2567 2055 L
2567 2005 mt 2517 2055 L
2532 1983 mt 2582 2033 L
2582 1983 mt 2532 2033 L
2546 1961 mt 2596 2011 L
2596 1961 mt 2546 2011 L
2561 1939 mt 2611 1989 L
2611 1939 mt 2561 1989 L
2575 1917 mt 2625 1967 L
2625 1917 mt 2575 1967 L
2590 1895 mt 2640 1945 L
2640 1895 mt 2590 1945 L
2604 1873 mt 2654 1923 L
2654 1873 mt 2604 1923 L
2619 1851 mt 2669 1901 L
2669 1851 mt 2619 1901 L
2633 1830 mt 2683 1880 L
2683 1830 mt 2633 1880 L
2648 1809 mt 2698 1859 L
2698 1809 mt 2648 1859 L
2662 1787 mt 2712 1837 L
2712 1787 mt 2662 1837 L
2677 1766 mt 2727 1816 L
2727 1766 mt 2677 1816 L
2691 1745 mt 2741 1795 L
2741 1745 mt 2691 1795 L
2706 1724 mt 2756 1774 L
2756 1724 mt 2706 1774 L
2720 1703 mt 2770 1753 L
2770 1703 mt 2720 1753 L
2735 1682 mt 2785 1732 L
2785 1682 mt 2735 1732 L
2749 1662 mt 2799 1712 L
2799 1662 mt 2749 1712 L
2764 1641 mt 2814 1691 L
2814 1641 mt 2764 1691 L
2778 1621 mt 2828 1671 L
2828 1621 mt 2778 1671 L
2793 1600 mt 2843 1650 L
2843 1600 mt 2793 1650 L
2807 1580 mt 2857 1630 L
2857 1580 mt 2807 1630 L
2822 1560 mt 2872 1610 L
2872 1560 mt 2822 1610 L
2836 1540 mt 2886 1590 L
2886 1540 mt 2836 1590 L
2851 1520 mt 2901 1570 L
2901 1520 mt 2851 1570 L
2865 1500 mt 2915 1550 L
2915 1500 mt 2865 1550 L
2880 1480 mt 2930 1530 L
2930 1480 mt 2880 1530 L
2894 1461 mt 2944 1511 L
2944 1461 mt 2894 1511 L
2909 1441 mt 2959 1491 L
2959 1441 mt 2909 1491 L
2923 1422 mt 2973 1472 L
2973 1422 mt 2923 1472 L
2938 1402 mt 2988 1452 L
2988 1402 mt 2938 1452 L
2952 1383 mt 3002 1433 L
3002 1383 mt 2952 1433 L
2967 1364 mt 3017 1414 L
3017 1364 mt 2967 1414 L
2981 1345 mt 3031 1395 L
3031 1345 mt 2981 1395 L
2996 1326 mt 3046 1376 L
3046 1326 mt 2996 1376 L
3010 1307 mt 3060 1357 L
3060 1307 mt 3010 1357 L
3025 1288 mt 3075 1338 L
3075 1288 mt 3025 1338 L
3039 1269 mt 3089 1319 L
3089 1269 mt 3039 1319 L
3054 1250 mt 3104 1300 L
3104 1250 mt 3054 1300 L
3068 1231 mt 3118 1281 L
3118 1231 mt 3068 1281 L
3083 1213 mt 3133 1263 L
3133 1213 mt 3083 1263 L
3098 1194 mt 3148 1244 L
3148 1194 mt 3098 1244 L
3112 1176 mt 3162 1226 L
3162 1176 mt 3112 1226 L
3127 1157 mt 3177 1207 L
3177 1157 mt 3127 1207 L
3141 1139 mt 3191 1189 L
3191 1139 mt 3141 1189 L
3156 1121 mt 3206 1171 L
3206 1121 mt 3156 1171 L
3170 1102 mt 3220 1152 L
3220 1102 mt 3170 1152 L
3185 1084 mt 3235 1134 L
3235 1084 mt 3185 1134 L
3199 1066 mt 3249 1116 L
3249 1066 mt 3199 1116 L
3214 1048 mt 3264 1098 L
3264 1048 mt 3214 1098 L
3228 1030 mt 3278 1080 L
3278 1030 mt 3228 1080 L
3243 1012 mt 3293 1062 L
3293 1012 mt 3243 1062 L
3257  994 mt 3307 1044 L
3307  994 mt 3257 1044 L
3272  976 mt 3322 1026 L
3322  976 mt 3272 1026 L
3286  958 mt 3336 1008 L
3336  958 mt 3286 1008 L
3301  940 mt 3351  990 L
3351  940 mt 3301  990 L
3315  922 mt 3365  972 L
3365  922 mt 3315  972 L
3330  904 mt 3380  954 L
3380  904 mt 3330  954 L
3344  886 mt 3394  936 L
3394  886 mt 3344  936 L
3359  868 mt 3409  918 L
3409  868 mt 3359  918 L
3373  851 mt 3423  901 L
3423  851 mt 3373  901 L
3388  833 mt 3438  883 L
3438  833 mt 3388  883 L
3402  815 mt 3452  865 L
3452  815 mt 3402  865 L
3417  797 mt 3467  847 L
3467  797 mt 3417  847 L
3431  779 mt 3481  829 L
3481  779 mt 3431  829 L
3446  762 mt 3496  812 L
3496  762 mt 3446  812 L
3460  779 mt 3510  829 L
3510  779 mt 3460  829 L
3475  797 mt 3525  847 L
3525  797 mt 3475  847 L
3489  815 mt 3539  865 L
3539  815 mt 3489  865 L
3504  833 mt 3554  883 L
3554  833 mt 3504  883 L
3518  851 mt 3568  901 L
3568  851 mt 3518  901 L
3533  868 mt 3583  918 L
3583  868 mt 3533  918 L
3547  886 mt 3597  936 L
3597  886 mt 3547  936 L
3562  904 mt 3612  954 L
3612  904 mt 3562  954 L
3576  922 mt 3626  972 L
3626  922 mt 3576  972 L
3591  940 mt 3641  990 L
3641  940 mt 3591  990 L
3605  958 mt 3655 1008 L
3655  958 mt 3605 1008 L
3620  976 mt 3670 1026 L
3670  976 mt 3620 1026 L
3634  994 mt 3684 1044 L
3684  994 mt 3634 1044 L
3649 1012 mt 3699 1062 L
3699 1012 mt 3649 1062 L
3663 1030 mt 3713 1080 L
3713 1030 mt 3663 1080 L
3678 1048 mt 3728 1098 L
3728 1048 mt 3678 1098 L
3692 1066 mt 3742 1116 L
3742 1066 mt 3692 1116 L
3707 1084 mt 3757 1134 L
3757 1084 mt 3707 1134 L
3721 1102 mt 3771 1152 L
3771 1102 mt 3721 1152 L
3736 1121 mt 3786 1171 L
3786 1121 mt 3736 1171 L
3750 1139 mt 3800 1189 L
3800 1139 mt 3750 1189 L
3765 1157 mt 3815 1207 L
3815 1157 mt 3765 1207 L
3779 1176 mt 3829 1226 L
3829 1176 mt 3779 1226 L
3794 1194 mt 3844 1244 L
3844 1194 mt 3794 1244 L
3808 1213 mt 3858 1263 L
3858 1213 mt 3808 1263 L
3823 1231 mt 3873 1281 L
3873 1231 mt 3823 1281 L
3838 1250 mt 3888 1300 L
3888 1250 mt 3838 1300 L
3852 1269 mt 3902 1319 L
3902 1269 mt 3852 1319 L
3867 1288 mt 3917 1338 L
3917 1288 mt 3867 1338 L
3881 1307 mt 3931 1357 L
3931 1307 mt 3881 1357 L
3896 1326 mt 3946 1376 L
3946 1326 mt 3896 1376 L
3910 1345 mt 3960 1395 L
3960 1345 mt 3910 1395 L
3925 1364 mt 3975 1414 L
3975 1364 mt 3925 1414 L
3939 1383 mt 3989 1433 L
3989 1383 mt 3939 1433 L
3954 1402 mt 4004 1452 L
4004 1402 mt 3954 1452 L
3968 1422 mt 4018 1472 L
4018 1422 mt 3968 1472 L
3983 1441 mt 4033 1491 L
4033 1441 mt 3983 1491 L
3997 1461 mt 4047 1511 L
4047 1461 mt 3997 1511 L
4012 1480 mt 4062 1530 L
4062 1480 mt 4012 1530 L
4026 1500 mt 4076 1550 L
4076 1500 mt 4026 1550 L
4041 1520 mt 4091 1570 L
4091 1520 mt 4041 1570 L
4055 1540 mt 4105 1590 L
4105 1540 mt 4055 1590 L
4070 1560 mt 4120 1610 L
4120 1560 mt 4070 1610 L
4084 1580 mt 4134 1630 L
4134 1580 mt 4084 1630 L
4099 1600 mt 4149 1650 L
4149 1600 mt 4099 1650 L
4113 1621 mt 4163 1671 L
4163 1621 mt 4113 1671 L
4128 1641 mt 4178 1691 L
4178 1641 mt 4128 1691 L
4142 1662 mt 4192 1712 L
4192 1662 mt 4142 1712 L
4157 1682 mt 4207 1732 L
4207 1682 mt 4157 1732 L
4171 1703 mt 4221 1753 L
4221 1703 mt 4171 1753 L
4186 1724 mt 4236 1774 L
4236 1724 mt 4186 1774 L
4200 1745 mt 4250 1795 L
4250 1745 mt 4200 1795 L
4215 1766 mt 4265 1816 L
4265 1766 mt 4215 1816 L
4229 1787 mt 4279 1837 L
4279 1787 mt 4229 1837 L
4244 1809 mt 4294 1859 L
4294 1809 mt 4244 1859 L
4258 1830 mt 4308 1880 L
4308 1830 mt 4258 1880 L
4273 1851 mt 4323 1901 L
4323 1851 mt 4273 1901 L
4287 1873 mt 4337 1923 L
4337 1873 mt 4287 1923 L
4302 1895 mt 4352 1945 L
4352 1895 mt 4302 1945 L
4316 1917 mt 4366 1967 L
4366 1917 mt 4316 1967 L
4331 1939 mt 4381 1989 L
4381 1939 mt 4331 1989 L
4345 1961 mt 4395 2011 L
4395 1961 mt 4345 2011 L
4360 1983 mt 4410 2033 L
4410 1983 mt 4360 2033 L
4374 2005 mt 4424 2055 L
4424 2005 mt 4374 2055 L
4389 2027 mt 4439 2077 L
4439 2027 mt 4389 2077 L
4403 2050 mt 4453 2100 L
4453 2050 mt 4403 2100 L
4418 2072 mt 4468 2122 L
4468 2072 mt 4418 2122 L
4432 2095 mt 4482 2145 L
4482 2095 mt 4432 2145 L
4447 2117 mt 4497 2167 L
4497 2117 mt 4447 2167 L
4461 2140 mt 4511 2190 L
4511 2140 mt 4461 2190 L
4476 2163 mt 4526 2213 L
4526 2163 mt 4476 2213 L
4490 2186 mt 4540 2236 L
4540 2186 mt 4490 2236 L
4505 2209 mt 4555 2259 L
4555 2209 mt 4505 2259 L
4519 2232 mt 4569 2282 L
4569 2232 mt 4519 2282 L
4534 2255 mt 4584 2305 L
4584 2255 mt 4534 2305 L
4548 2278 mt 4598 2328 L
4598 2278 mt 4548 2328 L
4563 2301 mt 4613 2351 L
4613 2301 mt 4563 2351 L
4578 2325 mt 4628 2375 L
4628 2325 mt 4578 2375 L
4592 2348 mt 4642 2398 L
4642 2348 mt 4592 2398 L
4607 2372 mt 4657 2422 L
4657 2372 mt 4607 2422 L
4621 2395 mt 4671 2445 L
4671 2395 mt 4621 2445 L
4636 2419 mt 4686 2469 L
4686 2419 mt 4636 2469 L
4650 2442 mt 4700 2492 L
4700 2442 mt 4650 2492 L
4665 2466 mt 4715 2516 L
4715 2466 mt 4665 2516 L
4679 2489 mt 4729 2539 L
4729 2489 mt 4679 2539 L
4694 2513 mt 4744 2563 L
4744 2513 mt 4694 2563 L
4708 2537 mt 4758 2587 L
4758 2537 mt 4708 2587 L
4723 2560 mt 4773 2610 L
4773 2560 mt 4723 2610 L
4737 2584 mt 4787 2634 L
4787 2584 mt 4737 2634 L
4752 2608 mt 4802 2658 L
4802 2608 mt 4752 2658 L
4766 2631 mt 4816 2681 L
4816 2631 mt 4766 2681 L
4781 2655 mt 4831 2705 L
4831 2655 mt 4781 2705 L
4795 2679 mt 4845 2729 L
4845 2679 mt 4795 2729 L
4810 2702 mt 4860 2752 L
4860 2702 mt 4810 2752 L
4824 2726 mt 4874 2776 L
4874 2726 mt 4824 2776 L
4839 2750 mt 4889 2800 L
4889 2750 mt 4839 2800 L
4853 2773 mt 4903 2823 L
4903 2773 mt 4853 2823 L
4868 2797 mt 4918 2847 L
4918 2797 mt 4868 2847 L
4882 2820 mt 4932 2870 L
4932 2820 mt 4882 2870 L
4897 2844 mt 4947 2894 L
4947 2844 mt 4897 2894 L
4911 2867 mt 4961 2917 L
4961 2867 mt 4911 2917 L
4926 2890 mt 4976 2940 L
4976 2890 mt 4926 2940 L
4940 2914 mt 4990 2964 L
4990 2914 mt 4940 2964 L
4955 2937 mt 5005 2987 L
5005 2937 mt 4955 2987 L
4969 2960 mt 5019 3010 L
5019 2960 mt 4969 3010 L
4984 2983 mt 5034 3033 L
5034 2983 mt 4984 3033 L
4998 3006 mt 5048 3056 L
5048 3006 mt 4998 3056 L
5013 3029 mt 5063 3079 L
5063 3029 mt 5013 3079 L
5027 3052 mt 5077 3102 L
5077 3052 mt 5027 3102 L
5042 3075 mt 5092 3125 L
5092 3075 mt 5042 3125 L
5056 3098 mt 5106 3148 L
5106 3098 mt 5056 3148 L
5071 3121 mt 5121 3171 L
5121 3121 mt 5071 3171 L
5085 3143 mt 5135 3193 L
5135 3143 mt 5085 3193 L
5100 3166 mt 5150 3216 L
5150 3166 mt 5100 3216 L
5114 3188 mt 5164 3238 L
5164 3188 mt 5114 3238 L
5129 3210 mt 5179 3260 L
5179 3210 mt 5129 3260 L
5143 3233 mt 5193 3283 L
5193 3233 mt 5143 3283 L
5158 3255 mt 5208 3305 L
5208 3255 mt 5158 3305 L
5172 3277 mt 5222 3327 L
5222 3277 mt 5172 3327 L
5187 3299 mt 5237 3349 L
5237 3299 mt 5187 3349 L
5201 3320 mt 5251 3370 L
5251 3320 mt 5201 3370 L
5216 3342 mt 5266 3392 L
5266 3342 mt 5216 3392 L
5230 3364 mt 5280 3414 L
5280 3364 mt 5230 3414 L
5245 3385 mt 5295 3435 L
5295 3385 mt 5245 3435 L
5259 3407 mt 5309 3457 L
5309 3407 mt 5259 3457 L
5274 3428 mt 5324 3478 L
5324 3428 mt 5274 3478 L
5288 3449 mt 5338 3499 L
5338 3449 mt 5288 3499 L
5303 3470 mt 5353 3520 L
5353 3470 mt 5303 3520 L
5318 3491 mt 5368 3541 L
5368 3491 mt 5318 3541 L
5332 3512 mt 5382 3562 L
5382 3512 mt 5332 3562 L
5347 3533 mt 5397 3583 L
5397 3533 mt 5347 3583 L
5361 3553 mt 5411 3603 L
5411 3553 mt 5361 3603 L
5376 3574 mt 5426 3624 L
5426 3574 mt 5376 3624 L
5390 3594 mt 5440 3644 L
5440 3594 mt 5390 3644 L
5405 3615 mt 5455 3665 L
5455 3615 mt 5405 3665 L
5419 3635 mt 5469 3685 L
5469 3635 mt 5419 3685 L
5434 3655 mt 5484 3705 L
5484 3655 mt 5434 3705 L
5448 3675 mt 5498 3725 L
5498 3675 mt 5448 3725 L
5463 3695 mt 5513 3745 L
5513 3695 mt 5463 3745 L
5477 3715 mt 5527 3765 L
5527 3715 mt 5477 3765 L
5492 3735 mt 5542 3785 L
5542 3735 mt 5492 3785 L
5506 3754 mt 5556 3804 L
5556 3754 mt 5506 3804 L
5521 3774 mt 5571 3824 L
5571 3774 mt 5521 3824 L
5535 3794 mt 5585 3844 L
5585 3794 mt 5535 3844 L
5550 3813 mt 5600 3863 L
5600 3813 mt 5550 3863 L
5564 3832 mt 5614 3882 L
5614 3832 mt 5564 3882 L
5579 3851 mt 5629 3901 L
5629 3851 mt 5579 3901 L
5593 3871 mt 5643 3921 L
5643 3871 mt 5593 3921 L
5608 3890 mt 5658 3940 L
5658 3890 mt 5608 3940 L
5622 3909 mt 5672 3959 L
5672 3909 mt 5622 3959 L
5637 3928 mt 5687 3978 L
5687 3928 mt 5637 3978 L
5651 3946 mt 5701 3996 L
5701 3946 mt 5651 3996 L
5666 3965 mt 5716 4015 L
5716 3965 mt 5666 4015 L
5680 3984 mt 5730 4034 L
5730 3984 mt 5680 4034 L
5695 4002 mt 5745 4052 L
5745 4002 mt 5695 4052 L
5709 4021 mt 5759 4071 L
5759 4021 mt 5709 4071 L
5724 4040 mt 5774 4090 L
5774 4040 mt 5724 4090 L
5738 4058 mt 5788 4108 L
5788 4058 mt 5738 4108 L
5753 4076 mt 5803 4126 L
5803 4076 mt 5753 4126 L
5767 4095 mt 5817 4145 L
5817 4095 mt 5767 4145 L
5782 4113 mt 5832 4163 L
5832 4113 mt 5782 4163 L
5796 4131 mt 5846 4181 L
5846 4131 mt 5796 4181 L
5811 4149 mt 5861 4199 L
5861 4149 mt 5811 4199 L
5825 4167 mt 5875 4217 L
5875 4167 mt 5825 4217 L
5840 4186 mt 5890 4236 L
5890 4186 mt 5840 4236 L
5854 4204 mt 5904 4254 L
5904 4204 mt 5854 4254 L
5869 4222 mt 5919 4272 L
5919 4222 mt 5869 4272 L
5883 4240 mt 5933 4290 L
5933 4240 mt 5883 4290 L
5898 4258 mt 5948 4308 L
5948 4258 mt 5898 4308 L
5912 4275 mt 5962 4325 L
5962 4275 mt 5912 4325 L
5927 4293 mt 5977 4343 L
5977 4293 mt 5927 4343 L
5941 4311 mt 5991 4361 L
5991 4311 mt 5941 4361 L
5956 4329 mt 6006 4379 L
6006 4329 mt 5956 4379 L
5970 4347 mt 6020 4397 L
6020 4347 mt 5970 4397 L
5985 4365 mt 6035 4415 L
6035 4365 mt 5985 4415 L
5999 4382 mt 6049 4432 L
6049 4382 mt 5999 4432 L
6014 4400 mt 6064 4450 L
6064 4400 mt 6014 4450 L
6028 4418 mt 6078 4468 L
6078 4418 mt 6028 4468 L
6043 4436 mt 6093 4486 L
6093 4436 mt 6043 4486 L
6058 4454 mt 6108 4504 L
6108 4454 mt 6058 4504 L
gs 874 377 5210 4103 rc
DD
72 w
/c9 { 1.000000 0.000000 1.000000 sr} bdef
c9
15 20 15 20 14 20 15 20 14 20 15 19 14 20 15 20 
14 20 15 20 14 20 15 19 14 20 15 20 14 20 15 20 
14 20 15 20 14 20 15 20 14 20 15 20 14 20 15 20 
14 20 15 20 14 20 15 20 14 20 15 20 14 20 15 21 
14 20 15 20 14 20 15 21 14 20 15 20 14 21 15 20 
14 20 15 21 14 20 15 21 14 20 15 21 14 20 15 21 
14 20 15 21 14 21 15 20 15 21 14 21 15 20 14 21 
15 21 14 21 15 20 14 21 15 21 14 21 15 21 14 21 
15 21 14 21 15 21 14 21 15 21 14 21 15 21 14 21 
15 21 14 21 15 21 14 22 15 21 14 21 15 21 14 21 
15 21 14 22 15 21 14 21 15 21 14 21 15 22 14 21 
15 21 14 21 15 22 14 21 15 21 14 21 15 22 14 21 
15 21 14 21 15 21 14 22 15 21 14 21 15 21 15 21 
14 21 15 22 14 21 15 21 14 21 15 21 14 21 15 21 
14 21 15 21 14 21 15 21 14 21 15 21 14 21 15 20 
14 21 15 21 14 21 15 21 14 21 15 20 14 21 15 21 
14 20 15 21 14 21 15 20 14 21 15 20 14 21 15 20 
14 21 15 20 14 21 15 20 14 20 15 21 14 20 15 20 
14 20 15 21 14 20 15 20 14 20 15 20 14 21 15 20 
14 20 15 20 15 20 14 20 15 20 14 20 15 20 14 20 
15 20 14 20 15 20 14 20 15 20 14 20 15 19 14 20 
15 20 14 20 15 20 14 20 15 20 14 19 15 20 14 20 
15 20 14 20 15 19 14 20 15 -20 14 -19 15 -20 14 -20 
15 -20 14 -20 15 -19 14 -20 15 -20 14 -20 15 -20 14 -20 
15 -20 14 -19 15 -20 14 -20 15 -20 14 -20 15 -20 14 -20 
15 -20 14 -20 15 -20 14 -20 15 -20 15 -20 14 -20 15 -20 
14 -20 15 -21 14 -20 15 -20 14 -20 15 -20 14 -21 15 -20 
14 -20 15 -20 14 -21 15 -20 14 -20 15 -21 14 -20 15 -21 
14 -20 15 -21 14 -20 15 -21 14 -20 15 -21 14 -21 15 -20 
14 -21 15 -21 14 -20 15 -21 14 -21 15 -21 14 -21 15 -21 
14 -20 15 -21 14 -21 15 -21 14 -21 15 -21 14 -21 15 -21 
14 -21 15 -21 14 -21 15 -21 14 -21 15 -21 14 -22 15 -21 
15 -21 14 -21 15 -21 14 -21 15 -22 14 -21 15 -21 14 -21 
15 -21 14 -22 15 -21 14 -21 15 -21 14 -22 15 -21 14 -21 
15 -21 14 -22 15 -21 14 -21 15 -21 14 -21 15 -22 14 -21 
15 -21 14 -21 15 -21 14 -21 15 -22 14 -21 15 -21 14 -21 
15 -21 14 -21 15 -21 14 -21 15 -21 14 -21 15 -21 14 -21 
15 -21 14 -21 15 -21 1744 3245 300 MP stroke
14 -21 15 -21 14 -20 15 -21 14 -21 15 -21 14 -20 15 -21 
15 -21 14 -20 15 -21 14 -21 15 -20 14 -21 15 -20 14 -21 
15 -20 14 -21 15 -20 14 -21 15 -20 14 -20 15 -21 14 -20 
15 -20 14 -21 15 -20 14 -20 15 -20 14 -21 15 -20 14 -20 
15 -20 14 -20 15 -20 14 -20 15 -20 14 -20 15 -20 14 -20 
15 -20 14 -20 15 -20 14 -20 15 -20 14 -20 15 -20 14 -20 
15 -20 14 -19 15 -20 14 -20 15 -20 14 -20 15 -20 14 -19 
15 -20 14 -20 15 -20 14 -20 874 4459 61 MP stroke
DO
48 w
/c10 { 1.000000 0.000000 0.000000 sr} bdef
c10
15 21 15 21 14 20 15 21 14 20 15 21 14 20 15 21 
14 20 15 21 14 20 15 21 14 20 15 21 14 20 15 21 
14 20 15 21 14 20 15 21 14 20 15 21 14 20 15 21 
14 20 15 21 14 20 15 21 14 20 15 21 14 20 15 21 
14 20 15 21 14 20 15 21 14 20 15 21 14 20 15 21 
14 20 15 21 14 20 15 21 14 20 15 21 14 20 15 21 
14 20 15 21 14 21 15 20 15 21 14 20 15 21 14 20 
15 21 14 20 15 21 14 20 15 21 14 20 15 21 14 20 
15 21 14 20 15 21 14 20 15 21 14 20 15 21 14 20 
15 21 14 20 15 21 14 20 15 21 14 20 15 21 14 20 
15 21 14 20 15 21 14 20 15 21 14 20 15 21 14 20 
15 21 14 20 15 21 14 20 15 21 14 20 15 21 14 20 
15 21 14 20 15 21 14 20 15 21 14 21 15 20 15 21 
14 20 15 21 14 20 15 21 14 20 15 21 14 20 15 21 
14 20 15 21 14 20 15 21 14 20 15 21 14 20 15 21 
14 20 15 21 14 20 15 21 14 20 15 21 14 20 15 21 
14 20 15 21 14 20 15 21 14 20 15 21 14 20 15 21 
14 20 15 21 14 20 15 21 14 20 15 21 14 20 15 21 
14 20 15 21 14 20 15 21 14 20 15 21 14 21 15 20 
14 21 15 20 15 21 14 20 15 21 14 20 15 21 14 20 
15 21 14 20 15 21 14 20 15 21 14 20 15 21 14 20 
15 21 14 20 15 21 14 20 15 21 14 20 15 21 14 20 
15 21 14 20 15 21 14 20 15 -20 14 -21 15 -20 14 -21 
15 -20 14 -21 15 -20 14 -21 15 -20 14 -21 15 -20 14 -21 
15 -20 14 -21 15 -20 14 -21 15 -20 14 -21 15 -20 14 -21 
15 -20 14 -21 15 -20 14 -21 15 -20 15 -21 14 -20 15 -21 
14 -20 15 -21 14 -21 15 -20 14 -21 15 -20 14 -21 15 -20 
14 -21 15 -20 14 -21 15 -20 14 -21 15 -20 14 -21 15 -20 
14 -21 15 -20 14 -21 15 -20 14 -21 15 -20 14 -21 15 -20 
14 -21 15 -20 14 -21 15 -20 14 -21 15 -20 14 -21 15 -20 
14 -21 15 -20 14 -21 15 -20 14 -21 15 -20 14 -21 15 -20 
14 -21 15 -20 14 -21 15 -20 14 -21 15 -20 14 -21 15 -20 
15 -21 14 -20 15 -21 14 -21 15 -20 14 -21 15 -20 14 -21 
15 -20 14 -21 15 -20 14 -21 15 -20 14 -21 15 -20 14 -21 
15 -20 14 -21 15 -20 14 -21 15 -20 14 -21 15 -20 14 -21 
15 -20 14 -21 15 -20 14 -21 15 -20 14 -21 15 -20 14 -21 
15 -20 14 -21 15 -20 14 -21 15 -20 14 -21 15 -20 14 -21 
15 -20 14 -21 15 -20 1744 3227 300 MP stroke
14 -21 15 -20 14 -21 15 -20 14 -21 15 -20 14 -21 15 -20 
15 -21 14 -20 15 -21 14 -21 15 -20 14 -21 15 -20 14 -21 
15 -20 14 -21 15 -20 14 -21 15 -20 14 -21 15 -20 14 -21 
15 -20 14 -21 15 -20 14 -21 15 -20 14 -21 15 -20 14 -21 
15 -20 14 -21 15 -20 14 -21 15 -20 14 -21 15 -20 14 -21 
15 -20 14 -21 15 -20 14 -21 15 -20 14 -21 15 -20 14 -21 
15 -20 14 -21 15 -20 14 -21 15 -20 14 -21 15 -20 14 -21 
15 -20 14 -21 15 -20 14 -21 874 4458 61 MP stroke
SO
24 w
gr

24 w
c10
0 sg
874 4461 PD
888 4443 PD
903 4425 PD
917 4407 PD
932 4390 PD
946 4372 PD
961 4354 PD
975 4336 PD
990 4318 PD
1004 4300 PD
1019 4283 PD
1033 4265 PD
1048 4247 PD
1062 4229 PD
1077 4211 PD
1091 4192 PD
1106 4174 PD
1120 4156 PD
1135 4138 PD
1149 4120 PD
1164 4101 PD
1178 4083 PD
1193 4065 PD
1207 4046 PD
1222 4027 PD
1236 4009 PD
1251 3990 PD
1265 3971 PD
1280 3953 PD
1294 3934 PD
1309 3915 PD
1323 3896 PD
1338 3876 PD
1352 3857 PD
1367 3838 PD
1381 3819 PD
1396 3799 PD
1410 3779 PD
1425 3760 PD
1439 3740 PD
1454 3720 PD
1468 3700 PD
1483 3680 PD
1497 3660 PD
1512 3640 PD
1526 3619 PD
1541 3599 PD
1555 3578 PD
1570 3558 PD
1584 3537 PD
1599 3516 PD
1613 3495 PD
1628 3474 PD
1643 3453 PD
1657 3432 PD
1672 3410 PD
1686 3389 PD
1701 3367 PD
1715 3345 PD
1730 3324 PD
1744 3302 PD
1759 3280 PD
1773 3258 PD
1788 3235 PD
1802 3213 PD
1817 3191 PD
1831 3168 PD
1846 3146 PD
1860 3123 PD
1875 3100 PD
1889 3077 PD
1904 3054 PD
1918 3031 PD
1933 3008 PD
1947 2985 PD
1962 2962 PD
1976 2939 PD
1991 2915 PD
2005 2892 PD
2020 2869 PD
2034 2845 PD
2049 2822 PD
2063 2798 PD
2078 2775 PD
2092 2751 PD
2107 2727 PD
2121 2704 PD
2136 2680 PD
2150 2656 PD
2165 2633 PD
2179 2609 PD
2194 2585 PD
2208 2562 PD
2223 2538 PD
2237 2514 PD
2252 2491 PD
2266 2467 PD
2281 2444 PD
2295 2420 PD
2310 2397 PD
2324 2373 PD
2339 2350 PD
2353 2326 PD
2368 2303 PD
2383 2280 PD
2397 2257 PD
2412 2234 PD
2426 2211 PD
2441 2188 PD
2455 2165 PD
2470 2142 PD
2484 2120 PD
2499 2097 PD
2513 2075 PD
2528 2052 PD
2542 2030 PD
2557 2008 PD
2571 1986 PD
2586 1964 PD
2600 1942 PD
2615 1920 PD
2629 1898 PD
2644 1876 PD
2658 1855 PD
2673 1834 PD
2687 1812 PD
2702 1791 PD
2716 1770 PD
2731 1749 PD
2745 1728 PD
2760 1707 PD
2774 1687 PD
2789 1666 PD
2803 1646 PD
2818 1625 PD
2832 1605 PD
2847 1585 PD
2861 1565 PD
2876 1545 PD
2890 1525 PD
2905 1505 PD
2919 1486 PD
2934 1466 PD
2948 1447 PD
2963 1427 PD
2977 1408 PD
2992 1389 PD
3006 1370 PD
3021 1351 PD
3035 1332 PD
3050 1313 PD
3064 1294 PD
3079 1275 PD
3093 1256 PD
3108 1238 PD
3123 1219 PD
3137 1201 PD
3152 1182 PD
3166 1164 PD
3181 1146 PD
3195 1127 PD
3210 1109 PD
3224 1091 PD
3239 1073 PD
3253 1055 PD
3268 1037 PD
3282 1019 PD
3297 1001 PD
3311 983 PD
3326 965 PD
3340 947 PD
3355 929 PD
3369 911 PD
3384 893 PD
3398 876 PD
3413 858 PD
3427 840 PD
3442 822 PD
3456 804 PD
3471 787 PD
3485 804 PD
3500 822 PD
3514 840 PD
3529 858 PD
3543 876 PD
3558 893 PD
3572 911 PD
3587 929 PD
3601 947 PD
3616 965 PD
3630 983 PD
3645 1001 PD
3659 1019 PD
3674 1037 PD
3688 1055 PD
3703 1073 PD
3717 1091 PD
3732 1109 PD
3746 1127 PD
3761 1146 PD
3775 1164 PD
3790 1182 PD
3804 1201 PD
3819 1219 PD
3833 1238 PD
3848 1256 PD
3863 1275 PD
3877 1294 PD
3892 1313 PD
3906 1332 PD
3921 1351 PD
3935 1370 PD
3950 1389 PD
3964 1408 PD
3979 1427 PD
3993 1447 PD
4008 1466 PD
4022 1486 PD
4037 1505 PD
4051 1525 PD
4066 1545 PD
4080 1565 PD
4095 1585 PD
4109 1605 PD
4124 1625 PD
4138 1646 PD
4153 1666 PD
4167 1687 PD
4182 1707 PD
4196 1728 PD
4211 1749 PD
4225 1770 PD
4240 1791 PD
4254 1812 PD
4269 1834 PD
4283 1855 PD
4298 1876 PD
4312 1898 PD
4327 1920 PD
4341 1942 PD
4356 1964 PD
4370 1986 PD
4385 2008 PD
4399 2030 PD
4414 2052 PD
4428 2075 PD
4443 2097 PD
4457 2120 PD
4472 2142 PD
4486 2165 PD
4501 2188 PD
4515 2211 PD
4530 2234 PD
4544 2257 PD
4559 2280 PD
4573 2303 PD
4588 2326 PD
4603 2350 PD
4617 2373 PD
4632 2397 PD
4646 2420 PD
4661 2444 PD
4675 2467 PD
4690 2491 PD
4704 2514 PD
4719 2538 PD
4733 2562 PD
4748 2585 PD
4762 2609 PD
4777 2633 PD
4791 2656 PD
4806 2680 PD
4820 2704 PD
4835 2727 PD
4849 2751 PD
4864 2775 PD
4878 2798 PD
4893 2822 PD
4907 2845 PD
4922 2869 PD
4936 2892 PD
4951 2915 PD
4965 2939 PD
4980 2962 PD
4994 2985 PD
5009 3008 PD
5023 3031 PD
5038 3054 PD
5052 3077 PD
5067 3100 PD
5081 3123 PD
5096 3146 PD
5110 3168 PD
5125 3191 PD
5139 3213 PD
5154 3235 PD
5168 3258 PD
5183 3280 PD
5197 3302 PD
5212 3324 PD
5226 3345 PD
5241 3367 PD
5255 3389 PD
5270 3410 PD
5284 3432 PD
5299 3453 PD
5313 3474 PD
5328 3495 PD
5343 3516 PD
5357 3537 PD
5372 3558 PD
5386 3578 PD
5401 3599 PD
5415 3619 PD
5430 3640 PD
5444 3660 PD
5459 3680 PD
5473 3700 PD
5488 3720 PD
5502 3740 PD
5517 3760 PD
5531 3779 PD
5546 3799 PD
5560 3819 PD
5575 3838 PD
5589 3857 PD
5604 3876 PD
5618 3896 PD
5633 3915 PD
5647 3934 PD
5662 3953 PD
5676 3971 PD
5691 3990 PD
5705 4009 PD
5720 4027 PD
5734 4046 PD
5749 4065 PD
5763 4083 PD
5778 4101 PD
5792 4120 PD
5807 4138 PD
5821 4156 PD
5836 4174 PD
5850 4192 PD
5865 4211 PD
5879 4229 PD
5894 4247 PD
5908 4265 PD
5923 4283 PD
5937 4300 PD
5952 4318 PD
5966 4336 PD
5981 4354 PD
5995 4372 PD
6010 4390 PD
6024 4407 PD
6039 4425 PD
6053 4443 PD
6068 4461 PD
6083 4479 PD
gs 874 377 5210 4103 rc
gr

2337 4974 mt 
(Degrees of Rotation) s
 330 3573 mt  -90 rotate
(Pronation \(Degrees\)) s
90 rotate
%%IncludeResource: font Helvetica
/Helvetica /ISOLatin1Encoding 120 FMSR

 857 4522 mt 
( ) s
6067  419 mt 
( ) s
6 w
1 sg
0 1322 1423 0 0 -1322 4601 1759 4 MP
PP
-1423 0 0 1322 1423 0 0 -1322 4601 1759 5 MP stroke
4 w
DO
SO
6 w
0 sg
4601 1759 mt 6024 1759 L
4601  437 mt 6024  437 L
4601 1759 mt 4601  437 L
6024 1759 mt 6024  437 L
4601 1759 mt 6024 1759 L
4601 1759 mt 4601  437 L
4601 1759 mt 6024 1759 L
4601  437 mt 6024  437 L
4601 1759 mt 4601  437 L
6024 1759 mt 6024  437 L
%%IncludeResource: font Symbol
/Symbol /ISOLatin1Encoding 240 FMSR

5032  704 mt 
(F) s
%%IncludeResource: font Helvetica-Bold
/Helvetica-Bold /ISOLatin1Encoding 240 FMSR

5215  704 mt 
( = ) s
%%IncludeResource: font Symbol
/Symbol /ISOLatin1Encoding 240 FMSR

5488  704 mt 
(p) s
%%IncludeResource: font Helvetica-Bold
/Helvetica-Bold /ISOLatin1Encoding 240 FMSR

5619  704 mt 
( / 6) s
gs 4601 437 1424 1323 rc
96 w
c8
331 0 4667 617 2 MP stroke
gs 4662 447 341 341 rc
4807  592 mt 4857  642 L
4857  592 mt 4807  642 L
gr

gr

96 w
c8
0 sg
%%IncludeResource: font Symbol
/Symbol /ISOLatin1Encoding 240 FMSR

5032 1024 mt 
(F) s
%%IncludeResource: font Helvetica-Bold
/Helvetica-Bold /ISOLatin1Encoding 240 FMSR

5215 1024 mt 
( = ) s
%%IncludeResource: font Symbol
/Symbol /ISOLatin1Encoding 240 FMSR

5488 1024 mt 
(p) s
%%IncludeResource: font Helvetica-Bold
/Helvetica-Bold /ISOLatin1Encoding 240 FMSR

5619 1024 mt 
( / 4) s
gs 4601 437 1424 1323 rc
DD
72 w
c9
331 0 4667 937 2 MP stroke
SO
gr

72 w
c9
0 sg
%%IncludeResource: font Symbol
/Symbol /ISOLatin1Encoding 240 FMSR

5032 1345 mt 
(F) s
%%IncludeResource: font Helvetica-Bold
/Helvetica-Bold /ISOLatin1Encoding 240 FMSR

5215 1345 mt 
( = ) s
%%IncludeResource: font Symbol
/Symbol /ISOLatin1Encoding 240 FMSR

5488 1345 mt 
(p) s
%%IncludeResource: font Helvetica-Bold
/Helvetica-Bold /ISOLatin1Encoding 240 FMSR

5619 1345 mt 
( / 3) s
gs 4601 437 1424 1323 rc
DO
48 w
c10
331 0 4667 1258 2 MP stroke
SO
gr

48 w
c10
0 sg
%%IncludeResource: font Symbol
/Symbol /ISOLatin1Encoding 240 FMSR

5032 1665 mt 
(F) s
%%IncludeResource: font Helvetica-Bold
/Helvetica-Bold /ISOLatin1Encoding 240 FMSR

5215 1665 mt 
( = ) s
%%IncludeResource: font Symbol
/Symbol /ISOLatin1Encoding 240 FMSR

5488 1665 mt 
(p) s
%%IncludeResource: font Helvetica-Bold
/Helvetica-Bold /ISOLatin1Encoding 240 FMSR

5619 1665 mt 
( / 2) s
gs 4601 437 1424 1323 rc
24 w
gs 4734 1480 197 197 rc
4832 1578 PD
gr

6 w
gr

6 w

end %%Color Dict

eplot
%%EndObject

epage
end

showpage

%%Trailer
%%EOF
